lab01/xrun_gui.log
TOOL:	xrun	19.09-s003: Started on Oct 26, 2020 at 18:22:13 CET
xrun
	-f dut_alu.f
		mtm_Alu.vp
	-f tb_alu.f
		alu_tb.sv
	-v93
	+nowarnDSEM2009
	+nowarnDSEMEL
	+nowarnCGDEFN
	-xmlibdirname INCA_libs_gui
	+access+r
	+gui
	+overwrite
	-nocopyright
	-coverage all
	-covoverwrite
	-covfile xrun_covfile.txt
	-covtest lab01
	-l xrun_gui.log

-------------------------------------
Relinquished control to SimVision...
xcelium> 
xcelium> source /cad/XCELIUM1909/tools/xcelium/files/xmsimrc
xcelium> database -open waves -into waves.shm -default
Created default SHM database waves
xcelium> probe -create -shm top.A top.B top.CTL top.clk top.data top.done top.flag top.g top.i top.j top.j_nxt top.k top.l top.l_nxt top.op top.op_set top.out top.out_nxt top.pass top.passes top.predicted_flag top.predicted_result top.q1 top.queue_A top.queue_B top.queue_op top.result top.rst_n top.sin top.sout
Created probe 1
xcelium> reset
xmsim: *W,C58RST: Reset command executed. Coverage is enabled for the subsequent simulation run.  The coverage test name needs to be changed to prevent data overwrite, and any coverage control commands previously used must be reissued.
Loaded snapshot worklib.top:sv
xcelium> run
PASSED 00000008 op: add_op
PASSED ffffff9c op: sub_op
PASSED ffffff4f op: sub_op
xmsim: *E,ERRSEV (./alu_tb.sv,427): (time 22941 NS).
top.scoreboard
FAILED: A: ffffffc5  B: ffffffe5  op: or_op result: ffffffe5 predicted_result: ffffffe5 flag: 1 predicted_flag: 2
PASSED ffffffe5 op: and_op
xmsim: *E,ERRSEV (./alu_tb.sv,433): (time 32921 NS).
top.scoreboard
FAILED: A: ffffffff  B: ffffff80  op: sub_op result: ffffff81 predicted_result: c
xmsim: *E,ERRSEV (./alu_tb.sv,433): (time 37901 NS).
top.scoreboard
FAILED: A: ffffff9d  B: 13  op: and_op result: 11 predicted_result: ffffff81
xmsim: *E,ERRSEV (./alu_tb.sv,433): (time 42881 NS).
top.scoreboard
FAILED: A: ffffffff  B: ffffffff  op: sub_op result: 0 predicted_result: 11
xmsim: *E,ERRSEV (./alu_tb.sv,433): (time 47861 NS).
top.scoreboard
FAILED: A: ffffffae  B: ffffffcf  op: sub_op result: 21 predicted_result: 0
xmsim: *E,ERRSEV (./alu_tb.sv,433): (time 52841 NS).
top.scoreboard
FAILED: A: ffffffca  B: 0  op: op_error result: 93ffffff predicted_result: 21
xmsim: *E,ERRSEV (./alu_tb.sv,433): (time 57821 NS).
top.scoreboard
FAILED: A: 41  B: 0  op: data_error result: c9 predicted_result: 93
xmsim: *E,ERRSEV (./alu_tb.sv,433): (time 62801 NS).
top.scoreboard
FAILED: A: ffffffeb  B: ffffffc6  op: and_op result: ff predicted_result: c9
xmsim: *E,ERRSEV (./alu_tb.sv,433): (time 67781 NS).
top.scoreboard
FAILED: A: 0  B: b  op: crc_error result: a5ffffff predicted_result: ffffffc2
xmsim: *E,ERRSEV (./alu_tb.sv,433): (time 72761 NS).
top.scoreboard
FAILED: A: 4f  B: ffffffff  op: or_op result: ff predicted_result: a5
xmsim: *E,ERRSEV (./alu_tb.sv,427): (time 77741 NS).
top.scoreboard
FAILED: A: 15  B: ffffffd9  op: data_error result: c9ffffff predicted_result: ffffffff flag: f predicted_flag: 2
PASSED 000000c9 op: data_error
xmsim: *E,ERRSEV (./alu_tb.sv,433): (time 87741 NS).
top.scoreboard
FAILED: A: ffffffd0  B: ffffffff  op: or_op result: ff predicted_result: c9
xmsim: *E,ERRSEV (./alu_tb.sv,433): (time 92721 NS).
top.scoreboard
FAILED: A: c  B: ffffffc8  op: or_op result: ff predicted_result: c9
xmsim: *E,ERRSEV (./alu_tb.sv,433): (time 97721 NS).
top.scoreboard
FAILED: A: ffffffff  B: ffffffff  op: or_op result: ff predicted_result: c9
xmsim: *E,ERRSEV (./alu_tb.sv,427): (time 102701 NS).
top.scoreboard
FAILED: A: 0  B: ffffffff  op: sub_op result: ffffffff predicted_result: ffffffff flag: 1 predicted_flag: 6
xmsim: *E,ERRSEV (./alu_tb.sv,427): (time 107681 NS).
top.scoreboard
FAILED: A: ffffffff  B: 58  op: or_op result: ffffffff predicted_result: ffffffcc flag: 1 predicted_flag: 2
xmsim: *E,ERRSEV (./alu_tb.sv,433): (time 112661 NS).
top.scoreboard
FAILED: A: ffffff9c  B: 26  op: crc_error result: ffffffff predicted_result: ffffffcc
xmsim: *E,ERRSEV (./alu_tb.sv,427): (time 117641 NS).
top.scoreboard
FAILED: A: ffffffff  B: ffffffff  op: op_error result: 93ffffff predicted_result: ffffffff flag: f predicted_flag: 2
xmsim: *E,ERRSEV (./alu_tb.sv,433): (time 122621 NS).
top.scoreboard
FAILED: A: ffffffff  B: 0  op: op_error result: 93ffffff predicted_result: ffffffff
xmsim: *E,ERRSEV (./alu_tb.sv,427): (time 127621 NS).
top.scoreboard
FAILED: A: ffffffda  B: ffffffb5  op: or_op result: ffffffff predicted_result: ffffffff flag: 1 predicted_flag: 2
xmsim: *E,ERRSEV (./alu_tb.sv,433): (time 132621 NS).
top.scoreboard
FAILED: A: ffffffff  B: ffffffdc  op: data_error result: c9 predicted_result: a5
xmsim: *E,ERRSEV (./alu_tb.sv,433): (time 137601 NS).
top.scoreboard
FAILED: A: ffffffc3  B: 4e  op: data_error result: c9 predicted_result: 93
xmsim: *E,ERRSEV (./alu_tb.sv,433): (time 142601 NS).
top.scoreboard
FAILED: A: 0  B: 0  op: or_op result: 0 predicted_result: 93
xmsim: *E,ERRSEV (./alu_tb.sv,433): (time 147581 NS).
top.scoreboard
FAILED: A: 0  B: ffffffdb  op: op_error result: 0 predicted_result: 93
xmsim: *E,ERRSEV (./alu_tb.sv,427): (time 152561 NS).
top.scoreboard
FAILED: A: 6d  B: ffffffca  op: sub_op result: ffffff5d predicted_result: ffffffff flag: 1 predicted_flag: 6
xmsim: *E,ERRSEV (./alu_tb.sv,433): (time 157541 NS).
top.scoreboard
FAILED: A: 46  B: 0  op: crc_error result: ffffff5d predicted_result: ffffffff
xmsim: *E,ERRSEV (./alu_tb.sv,433): (time 162541 NS).
top.scoreboard
FAILED: A: ffffffc7  B: 8  op: and_op result: 0 predicted_result: c9
xmsim: *E,ERRSEV (./alu_tb.sv,433): (time 167521 NS).
top.scoreboard
FAILED: A: 29  B: 0  op: add_op result: 0 predicted_result: c9
xmsim: *E,ERRSEV (./alu_tb.sv,433): (time 172501 NS).
top.scoreboard
FAILED: A: 3d  B: 70  op: crc_error result: 0 predicted_result: c9
xmsim: *E,ERRSEV (./alu_tb.sv,427): (time 177481 NS).
top.scoreboard
FAILED: A: 5e  B: ffffffd5  op: op_error result: 93ffffff predicted_result: 0 flag: f predicted_flag: 2
xmsim: *E,ERRSEV (./alu_tb.sv,433): (time 182461 NS).
top.scoreboard
FAILED: A: 37  B: ffffffc0  op: data_error result: c9 predicted_result: 93
xmsim: *E,ERRSEV (./alu_tb.sv,433): (time 187441 NS).
top.scoreboard
FAILED: A: 7d  B: 0  op: crc_error result: a5ffffff predicted_result: ffffff5d
PASSED 000000a5 op: crc_error
PASSED 000000a5 op: or_op
xmsim: *E,ERRSEV (./alu_tb.sv,433): (time 202401 NS).
top.scoreboard
FAILED: A: ffffffc5  B: 0  op: or_op result: ffffffc5 predicted_result: 0
xmsim: *E,ERRSEV (./alu_tb.sv,433): (time 207381 NS).
top.scoreboard
FAILED: A: ffffffff  B: 0  op: op_error result: 93ffffff predicted_result: 29
xmsim: *E,ERRSEV (./alu_tb.sv,433): (time 212361 NS).
top.scoreboard
FAILED: A: ffffffa8  B: ffffffa1  op: data_error result: c9 predicted_result: a5
xmsim: *E,ERRSEV (./alu_tb.sv,433): (time 217341 NS).
top.scoreboard
FAILED: A: ffffff9f  B: 2a  op: crc_error result: a5 predicted_result: 93
xmsim: *E,ERRSEV (./alu_tb.sv,433): (time 222321 NS).
top.scoreboard
FAILED: A: 38  B: ffffffc8  op: sub_op result: ff predicted_result: c9
xmsim: *E,ERRSEV (./alu_tb.sv,433): (time 227301 NS).
top.scoreboard
FAILED: A: ffffffff  B: ffffffff  op: data_error result: c9 predicted_result: a5
xmsim: *E,ERRSEV (./alu_tb.sv,433): (time 232301 NS).
top.scoreboard
FAILED: A: ffffffb4  B: ffffffff  op: or_op result: ff predicted_result: a5
xmsim: *E,ERRSEV (./alu_tb.sv,433): (time 237281 NS).
top.scoreboard
FAILED: A: fffffff2  B: ffffffbd  op: crc_error result: ff predicted_result: a5
xmsim: *E,ERRSEV (./alu_tb.sv,427): (time 242261 NS).
top.scoreboard
FAILED: A: 0  B: ffffffa9  op: add_op result: ffffffa9 predicted_result: 75 flag: 1 predicted_flag: a
xmsim: *E,ERRSEV (./alu_tb.sv,427): (time 247241 NS).
top.scoreboard
FAILED: A: fffffffb  B: ffffffff  op: or_op result: ffffffff predicted_result: ffffffc5 flag: 1 predicted_flag: 2
PASSED 00000093 op: op_error
PASSED 000000c9 op: data_error
xmsim: *E,ERRSEV (./alu_tb.sv,433): (time 262201 NS).
top.scoreboard
FAILED: A: d  B: 0  op: data_error result: c9 predicted_result: a5
xmsim: *E,ERRSEV (./alu_tb.sv,433): (time 267181 NS).
top.scoreboard
FAILED: A: ffffff86  B: 3b  op: and_op result: 2 predicted_result: ffffff90
xmsim: *E,ERRSEV (./alu_tb.sv,433): (time 272161 NS).
top.scoreboard
FAILED: A: ffffffff  B: 5b  op: and_op result: 0 predicted_result: c9
xmsim: *E,ERRSEV (./alu_tb.sv,433): (time 277141 NS).
top.scoreboard
FAILED: A: 0  B: ffffffff  op: data_error result: 0 predicted_result: c9
xmsim: *E,ERRSEV (./alu_tb.sv,427): (time 282121 NS).
top.scoreboard
FAILED: A: ffffffb8  B: ffffffe5  op: and_op result: ffffffa0 predicted_result: ffffffff flag: 1 predicted_flag: 2
xmsim: *E,ERRSEV (./alu_tb.sv,433): (time 287101 NS).
top.scoreboard
FAILED: A: ffffffff  B: ffffffc8  op: or_op result: ff predicted_result: a5
xmsim: *E,ERRSEV (./alu_tb.sv,433): (time 292101 NS).
top.scoreboard
FAILED: A: 14  B: ffffff96  op: and_op result: 14 predicted_result: ffffffa9
xmsim: *E,ERRSEV (./alu_tb.sv,427): (time 297081 NS).
top.scoreboard
FAILED: A: ffffffed  B: ffffffff  op: or_op result: ffffffff predicted_result: ffffffff flag: 1 predicted_flag: 2
PASSED ffffffff op: sub_op
PASSED 00000093 op: op_error
PASSED 000000c9 op: data_error
PASSED 000000c9 op: data_error
xmsim: *E,ERRSEV (./alu_tb.sv,433): (time 322001 NS).
top.scoreboard
FAILED: A: 0  B: 0  op: crc_error result: a5ffffff predicted_result: 2
xmsim: *E,ERRSEV (./alu_tb.sv,433): (time 326981 NS).
top.scoreboard
FAILED: A: 0  B: ffffffc5  op: and_op result: 0 predicted_result: 5b
xmsim: *E,ERRSEV (./alu_tb.sv,433): (time 331961 NS).
top.scoreboard
FAILED: A: 0  B: ffffffb0  op: and_op result: 0 predicted_result: c9
xmsim: *E,ERRSEV (./alu_tb.sv,433): (time 336941 NS).
top.scoreboard
FAILED: A: 62  B: ffffffe1  op: add_op result: 43 predicted_result: ffffffa0
xmsim: *E,ERRSEV (./alu_tb.sv,427): (time 341941 NS).
top.scoreboard
FAILED: A: ffffff8d  B: 7  op: sub_op result: 7a predicted_result: ffffffff flag: 8 predicted_flag: 2
xmsim: *E,ERRSEV (./alu_tb.sv,433): (time 346921 NS).
top.scoreboard
FAILED: A: 0  B: 3b  op: add_op result: 7a predicted_result: ffffffff
xmsim: *E,ERRSEV (./alu_tb.sv,433): (time 351901 NS).
top.scoreboard
FAILED: A: ffffffff  B: 5c  op: crc_error result: a5ffffff predicted_result: 14
xmsim: *E,ERRSEV (./alu_tb.sv,427): (time 356881 NS).
top.scoreboard
FAILED: A: 0  B: 0  op: sub_op result: 0 predicted_result: ffffffff flag: 2 predicted_flag: 2
xmsim: *E,ERRSEV (./alu_tb.sv,433): (time 361861 NS).
top.scoreboard
FAILED: A: 0  B: d  op: data_error result: c9ffffff predicted_result: ffffffd9
xmsim: *E,ERRSEV (./alu_tb.sv,433): (time 366841 NS).
top.scoreboard
FAILED: A: ffffff9e  B: 7b  op: op_error result: c9ffffff predicted_result: ffffffd9
xmsim: *E,ERRSEV (./alu_tb.sv,433): (time 371841 NS).
top.scoreboard
FAILED: A: 44  B: ffffffe0  op: sub_op result: ff predicted_result: 93
xmsim: *E,ERRSEV (./alu_tb.sv,433): (time 376821 NS).
top.scoreboard
FAILED: A: fffffff8  B: 52  op: sub_op result: 0 predicted_result: c9
xmsim: *E,ERRSEV (./alu_tb.sv,433): (time 381801 NS).
top.scoreboard
FAILED: A: ffffff8c  B: 0  op: add_op result: ff predicted_result: c9
xmsim: *E,ERRSEV (./alu_tb.sv,433): (time 386801 NS).
top.scoreboard
FAILED: A: ffffff8b  B: 25  op: and_op result: 0 predicted_result: a5
xmsim: *E,ERRSEV (./alu_tb.sv,433): (time 391781 NS).
top.scoreboard
FAILED: A: 49  B: 0  op: data_error result: c9ffffff predicted_result: 0
xmsim: *E,ERRSEV (./alu_tb.sv,433): (time 396761 NS).
top.scoreboard
FAILED: A: ffffffff  B: 0  op: sub_op result: 1 predicted_result: 0
xmsim: *E,ERRSEV (./alu_tb.sv,433): (time 401761 NS).
top.scoreboard
FAILED: A: 0  B: 0  op: and_op result: 0 predicted_result: 43
xmsim: *E,ERRSEV (./alu_tb.sv,433): (time 406761 NS).
top.scoreboard
FAILED: A: ffffffff  B: 0  op: op_error result: 0 predicted_result: 43
xmsim: *E,ERRSEV (./alu_tb.sv,433): (time 411741 NS).
top.scoreboard
FAILED: A: 0  B: 39  op: op_error result: 93ffffff predicted_result: 7a
xmsim: *E,ERRSEV (./alu_tb.sv,433): (time 416741 NS).
top.scoreboard
FAILED: A: 0  B: 49  op: sub_op result: 49 predicted_result: 3b
xmsim: *E,ERRSEV (./alu_tb.sv,433): (time 421721 NS).
top.scoreboard
FAILED: A: 0  B: 0  op: or_op result: 0 predicted_result: a5
xmsim: *E,ERRSEV (./alu_tb.sv,433): (time 426701 NS).
top.scoreboard
FAILED: A: ffffffff  B: ffffffc8  op: op_error result: 93ffffff predicted_result: 0
xmsim: *E,ERRSEV (./alu_tb.sv,433): (time 431681 NS).
top.scoreboard
FAILED: A: ffffff84  B: ffffffff  op: sub_op result: 0 predicted_result: c9
xmsim: *E,ERRSEV (./alu_tb.sv,433): (time 436661 NS).
top.scoreboard
FAILED: A: 52  B: ffffffd0  op: or_op result: ff predicted_result: 93
xmsim: *E,ERRSEV (./alu_tb.sv,433): (time 441641 NS).
top.scoreboard
FAILED: A: ffffffff  B: ffffffff  op: crc_error result: ff predicted_result: 93
xmsim: *E,ERRSEV (./alu_tb.sv,433): (time 446621 NS).
top.scoreboard
FAILED: A: ffffffff  B: 0  op: crc_error result: a5ffffff predicted_result: ffffff9c
xmsim: *E,ERRSEV (./alu_tb.sv,433): (time 451661 NS).
top.scoreboard
FAILED: A: 0  B: ffffffff  op: add_op result: ffffffff predicted_result: 5a
xmsim: *E,ERRSEV (./alu_tb.sv,433): (time 456641 NS).
top.scoreboard
FAILED: A: 0  B: ffffffff  op: crc_error result: a5ffffff predicted_result: ffffff8c
xmsim: *E,ERRSEV (./alu_tb.sv,433): (time 461621 NS).
top.scoreboard
FAILED: A: 0  B: ffffffff  op: sub_op result: a5ffffff predicted_result: ffffff8c
xmsim: *E,ERRSEV (./alu_tb.sv,433): (time 466601 NS).
top.scoreboard
FAILED: A: ffffff8b  B: ffffffdb  op: crc_error result: a5ffffff predicted_result: 1
xmsim: *E,ERRSEV (./alu_tb.sv,433): (time 471581 NS).
top.scoreboard
FAILED: A: ffffffc5  B: 0  op: and_op result: 0 predicted_result: c9
xmsim: *E,ERRSEV (./alu_tb.sv,433): (time 476581 NS).
top.scoreboard
FAILED: A: ffffffff  B: ffffff95  op: crc_error result: a5ffffff predicted_result: 1
xmsim: *E,ERRSEV (./alu_tb.sv,433): (time 481561 NS).
top.scoreboard
FAILED: A: 0  B: 28  op: crc_error result: a5ffffff predicted_result: 1
xmsim: *E,ERRSEV (./alu_tb.sv,433): (time 486541 NS).
top.scoreboard
FAILED: A: ffffffe1  B: ffffffff  op: add_op result: ffffffe0 predicted_result: 0
xmsim: *E,ERRSEV (./alu_tb.sv,433): (time 491521 NS).
top.scoreboard
FAILED: A: ffffffd5  B: 0  op: crc_error result: ffffffe0 predicted_result: 0
xmsim: *E,ERRSEV (./alu_tb.sv,433): (time 496501 NS).
top.scoreboard
FAILED: A: f  B: 7d  op: and_op result: 0 predicted_result: 93
xmsim: *E,ERRSEV (./alu_tb.sv,433): (time 501481 NS).
top.scoreboard
FAILED: A: 3c  B: ffffffef  op: crc_error result: a5 predicted_result: 93
xmsim: *E,ERRSEV (./alu_tb.sv,433): (time 506461 NS).
top.scoreboard
FAILED: A: ffffffff  B: ffffffb9  op: op_error result: a5 predicted_result: 93
xmsim: *E,ERRSEV (./alu_tb.sv,433): (time 511441 NS).
top.scoreboard
FAILED: A: ffffffff  B: 51  op: op_error result: 93ffffff predicted_result: 49
xmsim: *E,ERRSEV (./alu_tb.sv,427): (time 516441 NS).
top.scoreboard
FAILED: A: 7d  B: ffffffe5  op: add_op result: 62 predicted_result: 0 flag: 8 predicted_flag: a
xmsim: *E,ERRSEV (./alu_tb.sv,433): (time 521421 NS).
top.scoreboard
FAILED: A: 41  B: ffffffff  op: sub_op result: ff predicted_result: 93
xmsim: *E,ERRSEV (./alu_tb.sv,433): (time 526401 NS).
top.scoreboard
FAILED: A: 70  B: ffffffa2  op: op_error result: 93ffffff predicted_result: 7b
xmsim: *E,ERRSEV (./alu_tb.sv,427): (time 531381 NS).
top.scoreboard
FAILED: A: ffffffdc  B: 0  op: sub_op result: 24 predicted_result: ffffffd2 flag: 8 predicted_flag: 2
xmsim: *E,ERRSEV (./alu_tb.sv,433): (time 536361 NS).
top.scoreboard
FAILED: A: 78  B: 5c  op: op_error result: 93 predicted_result: a5
xmsim: *E,ERRSEV (./alu_tb.sv,433): (time 541341 NS).
top.scoreboard
FAILED: A: ffffffc8  B: ffffffff  op: op_error result: 93 predicted_result: a5
xmsim: *E,ERRSEV (./alu_tb.sv,433): (time 546321 NS).
top.scoreboard
FAILED: A: ffffffff  B: 0  op: crc_error result: 93 predicted_result: a5
xmsim: *E,ERRSEV (./alu_tb.sv,433): (time 551301 NS).
top.scoreboard
FAILED: A: 0  B: ffffffb9  op: crc_error result: 93 predicted_result: a5
xmsim: *E,ERRSEV (./alu_tb.sv,433): (time 556281 NS).
top.scoreboard
FAILED: A: 0  B: c  op: op_error result: 93 predicted_result: a5
xmsim: *E,ERRSEV (./alu_tb.sv,433): (time 561261 NS).
top.scoreboard
FAILED: A: 15  B: 4e  op: or_op result: 5f predicted_result: ffffffff
xmsim: *E,ERRSEV (./alu_tb.sv,433): (time 566241 NS).
top.scoreboard
FAILED: A: 0  B: 0  op: data_error result: c9 predicted_result: a5
xmsim: *E,ERRSEV (./alu_tb.sv,433): (time 571221 NS).
top.scoreboard
FAILED: A: ffffffff  B: 0  op: sub_op result: 1 predicted_result: ffffffff
xmsim: *E,ERRSEV (./alu_tb.sv,433): (time 576201 NS).
top.scoreboard
FAILED: A: 4c  B: ffffffff  op: and_op result: 0 predicted_result: a5
PASSED 00000000 op: and_op
PASSED 00000000 op: sub_op
xmsim: *E,ERRSEV (./alu_tb.sv,433): (time 591141 NS).
top.scoreboard
FAILED: A: 0  B: 4d  op: and_op result: 0 predicted_result: a5
xmsim: *E,ERRSEV (./alu_tb.sv,433): (time 596121 NS).
top.scoreboard
FAILED: A: 5d  B: 0  op: sub_op result: ff predicted_result: a5
xmsim: *E,ERRSEV (./alu_tb.sv,433): (time 601101 NS).
top.scoreboard
FAILED: A: 0  B: 0  op: data_error result: c9ffffff predicted_result: ffffffe0
PASSED 000000a5 op: crc_error
xmsim: *E,ERRSEV (./alu_tb.sv,433): (time 611061 NS).
top.scoreboard
FAILED: A: ffffffb7  B: 63  op: op_error result: 93ffffff predicted_result: d
xmsim: *E,ERRSEV (./alu_tb.sv,433): (time 616041 NS).
top.scoreboard
FAILED: A: 68  B: ffffff90  op: or_op result: ff predicted_result: a5
xmsim: *E,ERRSEV (./alu_tb.sv,433): (time 621021 NS).
top.scoreboard
FAILED: A: 0  B: ffffffab  op: data_error result: c9 predicted_result: 93
xmsim: *E,ERRSEV (./alu_tb.sv,433): (time 626001 NS).
top.scoreboard
FAILED: A: ffffffff  B: 0  op: and_op result: 0 predicted_result: 93
xmsim: *E,ERRSEV (./alu_tb.sv,433): (time 630981 NS).
top.scoreboard
FAILED: A: ffffff8b  B: 0  op: sub_op result: 0 predicted_result: 93
xmsim: *E,ERRSEV (./alu_tb.sv,433): (time 635961 NS).
top.scoreboard
FAILED: A: 0  B: ffffffa5  op: add_op result: ffffffa5 predicted_result: 62
xmsim: *E,ERRSEV (./alu_tb.sv,433): (time 640941 NS).
top.scoreboard
FAILED: A: ffffffff  B: 0  op: crc_error result: a5ffffff predicted_result: ffffffbe
xmsim: *E,ERRSEV (./alu_tb.sv,433): (time 645921 NS).
top.scoreboard
FAILED: A: 0  B: ffffff9a  op: add_op result: ff predicted_result: 93
xmsim: *E,ERRSEV (./alu_tb.sv,433): (time 650901 NS).
top.scoreboard
FAILED: A: ffffffaa  B: ffffffc3  op: and_op result: ffffff82 predicted_result: 24
xmsim: *E,ERRSEV (./alu_tb.sv,433): (time 655881 NS).
top.scoreboard
FAILED: A: 0  B: ffffffc3  op: data_error result: c9 predicted_result: 93
PASSED 00000093 op: op_error
xmsim: *E,ERRSEV (./alu_tb.sv,433): (time 665861 NS).
top.scoreboard
FAILED: A: ffffffff  B: ffffffff  op: sub_op result: 0 predicted_result: a5
xmsim: *E,ERRSEV (./alu_tb.sv,433): (time 670841 NS).
top.scoreboard
FAILED: A: 0  B: ffffff82  op: op_error result: 93 predicted_result: a5
xmsim: *E,ERRSEV (./alu_tb.sv,433): (time 675821 NS).
top.scoreboard
FAILED: A: ffffffff  B: 32  op: add_op result: 0 predicted_result: 93
xmsim: *E,ERRSEV (./alu_tb.sv,427): (time 680801 NS).
top.scoreboard
FAILED: A: 0  B: ffffffaa  op: or_op result: ffffffaa predicted_result: 5f flag: 1 predicted_flag: 2
xmsim: *E,ERRSEV (./alu_tb.sv,433): (time 685781 NS).
top.scoreboard
FAILED: A: ffffff8c  B: fffffffb  op: and_op result: ff predicted_result: c9
xmsim: *E,ERRSEV (./alu_tb.sv,433): (time 690761 NS).
top.scoreboard
FAILED: A: 0  B: ffffffff  op: add_op result: ffffffff predicted_result: 1
xmsim: *E,ERRSEV (./alu_tb.sv,433): (time 695741 NS).
top.scoreboard
FAILED: A: ffffffff  B: ffffff89  op: or_op result: ffffffff predicted_result: 4c
xmsim: *E,ERRSEV (./alu_tb.sv,433): (time 700741 NS).
top.scoreboard
FAILED: A: ffffff82  B: 71  op: op_error result: 93ffffff predicted_result: 0
xmsim: *E,ERRSEV (./alu_tb.sv,433): (time 705741 NS).
top.scoreboard
FAILED: A: 0  B: 0  op: add_op result: 0 predicted_result: 44
xmsim: *E,ERRSEV (./alu_tb.sv,433): (time 710721 NS).
top.scoreboard
FAILED: A: 37  B: ffffffff  op: data_error result: c9ffffff predicted_result: 0
xmsim: *E,ERRSEV (./alu_tb.sv,433): (time 715701 NS).
top.scoreboard
FAILED: A: 3e  B: 0  op: crc_error result: a5ffffff predicted_result: ffffffa3
xmsim: *E,ERRSEV (./alu_tb.sv,433): (time 720681 NS).
top.scoreboard
FAILED: A: 0  B: 12  op: add_op result: 0 predicted_result: c9
xmsim: *E,ERRSEV (./alu_tb.sv,433): (time 725661 NS).
top.scoreboard
FAILED: A: fffffffe  B: fffffff3  op: and_op result: ff predicted_result: a5
PASSED 00000093 op: op_error
xmsim: *E,ERRSEV (./alu_tb.sv,427): (time 735641 NS).
top.scoreboard
FAILED: A: ffffffff  B: ffffffff  op: add_op result: fffffffe predicted_result: fffffff8 flag: 9 predicted_flag: e
xmsim: *E,ERRSEV (./alu_tb.sv,433): (time 740621 NS).
top.scoreboard
FAILED: A: 0  B: ffffffe1  op: add_op result: ff predicted_result: c9
xmsim: *E,ERRSEV (./alu_tb.sv,433): (time 745601 NS).
top.scoreboard
FAILED: A: ffffffc9  B: 0  op: sub_op result: 37 predicted_result: 0
xmsim: *E,ERRSEV (./alu_tb.sv,433): (time 750581 NS).
top.scoreboard
FAILED: A: 0  B: ffffffff  op: crc_error result: a5ffffff predicted_result: 75
xmsim: *E,ERRSEV (./alu_tb.sv,433): (time 755561 NS).
top.scoreboard
FAILED: A: ffffffff  B: ffffffdc  op: and_op result: ffffffdc predicted_result: ffffffa5
xmsim: *E,ERRSEV (./alu_tb.sv,433): (time 760541 NS).
top.scoreboard
FAILED: A: 0  B: 0  op: and_op result: 0 predicted_result: a5
xmsim: *E,ERRSEV (./alu_tb.sv,433): (time 765521 NS).
top.scoreboard
FAILED: A: 0  B: 53  op: op_error result: 93ffffff predicted_result: ffffff9a
xmsim: *E,ERRSEV (./alu_tb.sv,433): (time 770501 NS).
top.scoreboard
FAILED: A: ffffffff  B: ffffffff  op: and_op result: ffffffff predicted_result: ffffff82
PASSED 000000c9 op: data_error
xmsim: *E,ERRSEV (./alu_tb.sv,433): (time 780461 NS).
top.scoreboard
FAILED: A: c  B: 15  op: or_op result: 0 predicted_result: 93
xmsim: *E,ERRSEV (./alu_tb.sv,433): (time 785441 NS).
top.scoreboard
FAILED: A: 0  B: 0  op: and_op result: 0 predicted_result: 93
xmsim: *E,ERRSEV (./alu_tb.sv,433): (time 790421 NS).
top.scoreboard
FAILED: A: ffffffff  B: ffffffff  op: and_op result: ffffffff predicted_result: 0
xmsim: *E,ERRSEV (./alu_tb.sv,433): (time 795401 NS).
top.scoreboard
FAILED: A: 0  B: 0  op: sub_op result: 0 predicted_result: 93
xmsim: *E,ERRSEV (./alu_tb.sv,433): (time 800401 NS).
top.scoreboard
FAILED: A: 0  B: ffffffc9  op: op_error result: 93ffffff predicted_result: 31
xmsim: *E,ERRSEV (./alu_tb.sv,427): (time 805401 NS).
top.scoreboard
FAILED: A: ffffffff  B: 0  op: add_op result: ffffffff predicted_result: ffffffaa flag: 1 predicted_flag: a
xmsim: *E,ERRSEV (./alu_tb.sv,433): (time 810381 NS).
top.scoreboard
FAILED: A: 1a  B: 0  op: sub_op result: ffffffe6 predicted_result: ffffff88
xmsim: *E,ERRSEV (./alu_tb.sv,433): (time 815361 NS).
top.scoreboard
FAILED: A: 0  B: 0  op: data_error result: c9ffffff predicted_result: ffffffff
xmsim: *E,ERRSEV (./alu_tb.sv,427): (time 820341 NS).
top.scoreboard
FAILED: A: 0  B: ffffffea  op: op_error result: 93ffffff predicted_result: ffffffff flag: f predicted_flag: 2
xmsim: *E,ERRSEV (./alu_tb.sv,433): (time 825321 NS).
top.scoreboard
FAILED: A: 0  B: ffffffff  op: crc_error result: 93ffffff predicted_result: ffffffff
xmsim: *E,ERRSEV (./alu_tb.sv,433): (time 830301 NS).
top.scoreboard
FAILED: A: 0  B: ffffffff  op: and_op result: 0 predicted_result: 93
xmsim: *E,ERRSEV (./alu_tb.sv,433): (time 835281 NS).
top.scoreboard
FAILED: A: 51  B: ffffffff  op: and_op result: 0 predicted_result: 93
xmsim: *E,ERRSEV (./alu_tb.sv,433): (time 840261 NS).
top.scoreboard
FAILED: A: ffffffb0  B: ffffffff  op: op_error result: 93ffffff predicted_result: 0
xmsim: *E,ERRSEV (./alu_tb.sv,433): (time 845261 NS).
top.scoreboard
FAILED: A: 61  B: 55  op: sub_op result: ff predicted_result: c9
xmsim: *E,ERRSEV (./alu_tb.sv,433): (time 850261 NS).
top.scoreboard
FAILED: A: 58  B: ffffffc3  op: and_op result: 0 predicted_result: a5
xmsim: *E,ERRSEV (./alu_tb.sv,433): (time 855241 NS).
top.scoreboard
FAILED: A: 0  B: ffffffd6  op: add_op result: ffffffd6 predicted_result: 12
xmsim: *E,ERRSEV (./alu_tb.sv,433): (time 860241 NS).
top.scoreboard
FAILED: A: ffffffff  B: 77  op: data_error result: c9ffffff predicted_result: fffffff2
xmsim: *E,ERRSEV (./alu_tb.sv,433): (time 865221 NS).
top.scoreboard
FAILED: A: fffffff8  B: 6c  op: sub_op result: 0 predicted_result: 93
xmsim: *E,ERRSEV (./alu_tb.sv,433): (time 870201 NS).
top.scoreboard
FAILED: A: ffffff9c  B: 0  op: and_op result: 0 predicted_result: 93
xmsim: *E,ERRSEV (./alu_tb.sv,433): (time 875201 NS).
top.scoreboard
FAILED: A: 28  B: ffffff9a  op: sub_op result: ffffff72 predicted_result: fffffffe
xmsim: *E,ERRSEV (./alu_tb.sv,433): (time 880181 NS).
top.scoreboard
FAILED: A: fffffffb  B: ffffffff  op: op_error result: 93ffffff predicted_result: ffffffe1
xmsim: *E,ERRSEV (./alu_tb.sv,433): (time 885161 NS).
top.scoreboard
FAILED: A: 0  B: ffffff9e  op: data_error result: c9ffffff predicted_result: 37
xmsim: *E,ERRSEV (./alu_tb.sv,433): (time 890141 NS).
top.scoreboard
FAILED: A: ffffffff  B: ffffffff  op: or_op result: ff predicted_result: a5
xmsim: *E,ERRSEV (./alu_tb.sv,433): (time 895121 NS).
top.scoreboard
FAILED: A: 0  B: 7e  op: or_op result: 7e predicted_result: ffffffdc
xmsim: *E,ERRSEV (./alu_tb.sv,433): (time 900101 NS).
top.scoreboard
FAILED: A: 49  B: ffffffff  op: add_op result: 48 predicted_result: 0
xmsim: *E,ERRSEV (./alu_tb.sv,433): (time 905081 NS).
top.scoreboard
FAILED: A: ffffffff  B: ffffffff  op: add_op result: ff predicted_result: 93
