lab01/xrun_test_lab01.log
TOOL:	xrun	19.09-s003: Started on Oct 20, 2020 at 22:58:59 CEST
xrun
	-f dut_alu.f
		mtm_Alu.vp
	-f tb_alu.f
		alu_tb.sv
	-v93
	+nowarnDSEM2009
	+nowarnDSEMEL
	+nowarnCGDEFN
	-xmlibdirname INCA_libs
	+overwrite
	-nocopyright
	-coverage all
	-covoverwrite
	-covfile xrun_covfile.txt
	-covtest lab01
	-l xrun_test_lab01.log
Loading snapshot worklib.top:sv .................... Done
xcelium> source /cad/XCELIUM1909/tools/xcelium/files/xmsimrc
xcelium> run
xmsim: *E,ERRSEV (./alu_tb.sv,433): (time 6021 NS).
top.scoreboard
FAILED: A: 9  B: ffffffff  op: add_op result: 0 predicted_result: 8
xmsim: *E,ERRSEV (./alu_tb.sv,433): (time 11001 NS).
top.scoreboard
FAILED: A: 65  B: 1  op: sub_op result: c9ffc9ff predicted_result: ffffff9c
PASSED ffffff4f op: sub_op
PASSED ffffffe5 op: or_op
PASSED 0000000c op: and_op
PASSED ffffff81 op: sub_op
PASSED 00000011 op: and_op
PASSED 00000000 op: sub_op
PASSED 00000021 op: sub_op
PASSED 00000093 op: op_error
xmsim: *E,ERRSEV (./alu_tb.sv,433): (time 55401 NS).
top.scoreboard
FAILED: A: 41  B: 0  op: data_error result: 93 predicted_result: c9
xmsim: *E,ERRSEV (./alu_tb.sv,433): (time 60381 NS).
top.scoreboard
FAILED: A: ffffffeb  B: ffffffc6  op: and_op result: c9ffffff predicted_result: ffffffc2
PASSED 000000a5 op: crc_error
PASSED ffffffff op: or_op
xmsim: *E,ERRSEV (./alu_tb.sv,433): (time 74881 NS).
top.scoreboard
FAILED: A: 15  B: ffffffd9  op: data_error result: ff predicted_result: c9
PASSED 000000c9 op: data_error
xmsim: *E,ERRSEV (./alu_tb.sv,433): (time 84441 NS).
top.scoreboard
FAILED: A: ffffffd0  B: ffffffff  op: or_op result: 93ffffff predicted_result: ffffffff
PASSED ffffffcc op: or_op
PASSED ffffffff op: or_op
PASSED ffffffff op: sub_op
PASSED ffffffff op: or_op
PASSED 000000a5 op: crc_error
PASSED 00000093 op: op_error
PASSED 00000093 op: op_error
PASSED ffffffff op: or_op
xmsim: *E,ERRSEV (./alu_tb.sv,433): (time 128881 NS).
top.scoreboard
FAILED: A: ffffffff  B: ffffffdc  op: data_error result: ff predicted_result: c9
PASSED 000000c9 op: data_error
xmsim: *E,ERRSEV (./alu_tb.sv,433): (time 138421 NS).
top.scoreboard
FAILED: A: 0  B: 0  op: or_op result: 93ffffff predicted_result: 0
PASSED 00000093 op: op_error
PASSED ffffff5d op: sub_op
PASSED 000000a5 op: crc_error
PASSED 00000000 op: and_op
PASSED 00000029 op: add_op
PASSED 000000a5 op: crc_error
PASSED 00000093 op: op_error
xmsim: *E,ERRSEV (./alu_tb.sv,433): (time 177841 NS).
top.scoreboard
FAILED: A: 37  B: ffffffc0  op: data_error result: 93 predicted_result: c9
xmsim: *E,ERRSEV (./alu_tb.sv,433): (time 182821 NS).
top.scoreboard
FAILED: A: 7d  B: 0  op: crc_error result: c9 predicted_result: a5
PASSED 000000a5 op: crc_error
PASSED 00000075 op: or_op
PASSED ffffffc5 op: or_op
PASSED 00000093 op: op_error
xmsim: *E,ERRSEV (./alu_tb.sv,433): (time 207301 NS).
top.scoreboard
FAILED: A: ffffffa8  B: ffffffa1  op: data_error result: 93 predicted_result: c9
xmsim: *E,ERRSEV (./alu_tb.sv,433): (time 212281 NS).
top.scoreboard
FAILED: A: ffffff9f  B: 2a  op: crc_error result: c9 predicted_result: a5
PASSED ffffff90 op: sub_op
xmsim: *E,ERRSEV (./alu_tb.sv,433): (time 221801 NS).
top.scoreboard
FAILED: A: ffffffff  B: ffffffff  op: data_error result: ff predicted_result: c9
xmsim: *E,ERRSEV (./alu_tb.sv,433): (time 226801 NS).
top.scoreboard
FAILED: A: ffffffb4  B: ffffffff  op: or_op result: c9ffffff predicted_result: ffffffff
PASSED 000000a5 op: crc_error
PASSED ffffffa9 op: add_op
PASSED ffffffff op: or_op
PASSED 00000093 op: op_error
xmsim: *E,ERRSEV (./alu_tb.sv,433): (time 251281 NS).
top.scoreboard
FAILED: A: 0  B: 4b  op: data_error result: 93 predicted_result: c9
PASSED 000000c9 op: data_error
xmsim: *E,ERRSEV (./alu_tb.sv,433): (time 260801 NS).
top.scoreboard
FAILED: A: ffffff86  B: 3b  op: and_op result: 93ffffff predicted_result: 2
PASSED 0000005b op: and_op
xmsim: *E,ERRSEV (./alu_tb.sv,433): (time 270321 NS).
top.scoreboard
FAILED: A: 0  B: ffffffff  op: data_error result: 0 predicted_result: c9
xmsim: *E,ERRSEV (./alu_tb.sv,433): (time 275301 NS).
top.scoreboard
FAILED: A: ffffffb8  B: ffffffe5  op: and_op result: c9ffffff predicted_result: ffffffa0
PASSED ffffffff op: or_op
PASSED 00000014 op: and_op
PASSED ffffffff op: or_op
PASSED ffffffd9 op: sub_op
PASSED 00000093 op: op_error
xmsim: *E,ERRSEV (./alu_tb.sv,433): (time 304781 NS).
top.scoreboard
FAILED: A: ffffff83  B: 0  op: data_error result: 93 predicted_result: c9
PASSED 000000c9 op: data_error
xmsim: *E,ERRSEV (./alu_tb.sv,433): (time 314301 NS).
top.scoreboard
FAILED: A: 0  B: 0  op: crc_error result: 93 predicted_result: a5
PASSED 00000000 op: and_op
PASSED 00000000 op: and_op
PASSED 00000043 op: add_op
PASSED 0000007a op: sub_op
PASSED 0000003b op: add_op
PASSED 000000a5 op: crc_error
PASSED 00000000 op: sub_op
xmsim: *E,ERRSEV (./alu_tb.sv,433): (time 353721 NS).
top.scoreboard
FAILED: A: 0  B: d  op: data_error result: 0 predicted_result: c9
xmsim: *E,ERRSEV (./alu_tb.sv,433): (time 358701 NS).
top.scoreboard
FAILED: A: ffffff9e  B: 7b  op: op_error result: c9 predicted_result: 93
PASSED ffffff9c op: sub_op
PASSED 0000005a op: sub_op
PASSED ffffff8c op: add_op
PASSED 00000001 op: and_op
xmsim: *E,ERRSEV (./alu_tb.sv,433): (time 383201 NS).
top.scoreboard
FAILED: A: 49  B: 0  op: data_error result: 0 predicted_result: c9
xmsim: *E,ERRSEV (./alu_tb.sv,433): (time 388181 NS).
top.scoreboard
FAILED: A: ffffffff  B: 0  op: sub_op result: c9ffffff predicted_result: 1
PASSED 00000000 op: and_op
PASSED 00000093 op: op_error
PASSED 00000093 op: op_error
PASSED 00000049 op: sub_op
PASSED 00000000 op: or_op
PASSED 00000093 op: op_error
PASSED 0000007b op: sub_op
PASSED ffffffd2 op: or_op
PASSED 000000a5 op: crc_error
PASSED 000000a5 op: crc_error
PASSED ffffffff op: add_op
PASSED 000000a5 op: crc_error
PASSED ffffffff op: sub_op
PASSED 000000a5 op: crc_error
PASSED 00000000 op: and_op
PASSED 000000a5 op: crc_error
PASSED 000000a5 op: crc_error
PASSED ffffffe0 op: add_op
PASSED 000000a5 op: crc_error
PASSED 0000000d op: and_op
PASSED 000000a5 op: crc_error
PASSED 00000093 op: op_error
PASSED 00000093 op: op_error
PASSED 00000062 op: add_op
PASSED ffffffbe op: sub_op
PASSED 00000093 op: op_error
PASSED 00000024 op: sub_op
PASSED 00000093 op: op_error
PASSED 00000093 op: op_error
PASSED 000000a5 op: crc_error
PASSED 000000a5 op: crc_error
PASSED 00000093 op: op_error
PASSED 0000005f op: or_op
xmsim: *E,ERRSEV (./alu_tb.sv,433): (time 557221 NS).
top.scoreboard
FAILED: A: 0  B: 0  op: data_error result: 0 predicted_result: c9
xmsim: *E,ERRSEV (./alu_tb.sv,433): (time 562201 NS).
top.scoreboard
FAILED: A: ffffffff  B: 0  op: sub_op result: c9ffffff predicted_result: 1
PASSED 0000004c op: and_op
PASSED 00000000 op: and_op
PASSED 00000044 op: sub_op
PASSED 00000000 op: and_op
PASSED ffffffa3 op: sub_op
xmsim: *E,ERRSEV (./alu_tb.sv,433): (time 591641 NS).
top.scoreboard
FAILED: A: 0  B: 0  op: data_error result: ff predicted_result: c9
xmsim: *E,ERRSEV (./alu_tb.sv,433): (time 596621 NS).
top.scoreboard
FAILED: A: 46  B: ffffffff  op: crc_error result: c9 predicted_result: a5
PASSED 00000093 op: op_error
PASSED fffffff8 op: or_op
xmsim: *E,ERRSEV (./alu_tb.sv,433): (time 611121 NS).
top.scoreboard
FAILED: A: 0  B: ffffffab  op: data_error result: ff predicted_result: c9
xmsim: *E,ERRSEV (./alu_tb.sv,433): (time 616101 NS).
top.scoreboard
FAILED: A: ffffffff  B: 0  op: and_op result: c9ffffff predicted_result: 0
PASSED 00000075 op: sub_op
PASSED ffffffa5 op: add_op
PASSED 000000a5 op: crc_error
PASSED ffffff9a op: add_op
PASSED ffffff82 op: and_op
xmsim: *E,ERRSEV (./alu_tb.sv,433): (time 645541 NS).
top.scoreboard
FAILED: A: 0  B: ffffffc3  op: data_error result: ff predicted_result: c9
xmsim: *E,ERRSEV (./alu_tb.sv,433): (time 650521 NS).
top.scoreboard
FAILED: A: 0  B: ffffff89  op: op_error result: c9 predicted_result: 93
PASSED 00000000 op: sub_op
PASSED 00000093 op: op_error
PASSED 00000031 op: add_op
PASSED ffffffaa op: or_op
PASSED ffffff88 op: and_op
PASSED ffffffff op: add_op
PASSED ffffffff op: or_op
PASSED 00000093 op: op_error
PASSED 00000000 op: add_op
xmsim: *E,ERRSEV (./alu_tb.sv,433): (time 699941 NS).
top.scoreboard
FAILED: A: 37  B: ffffffff  op: data_error result: 0 predicted_result: c9
xmsim: *E,ERRSEV (./alu_tb.sv,433): (time 704921 NS).
top.scoreboard
FAILED: A: 3e  B: 0  op: crc_error result: c9 predicted_result: a5
PASSED 00000012 op: add_op
PASSED fffffff2 op: and_op
PASSED 00000093 op: op_error
PASSED fffffffe op: add_op
PASSED ffffffe1 op: add_op
PASSED 00000037 op: sub_op
PASSED 000000a5 op: crc_error
PASSED ffffffdc op: and_op
PASSED 00000000 op: and_op
PASSED 00000093 op: op_error
PASSED ffffffff op: and_op
xmsim: *E,ERRSEV (./alu_tb.sv,433): (time 764261 NS).
top.scoreboard
FAILED: A: 70  B: ffffffff  op: data_error result: ff predicted_result: c9
xmsim: *E,ERRSEV (./alu_tb.sv,433): (time 769241 NS).
top.scoreboard
FAILED: A: c  B: 15  op: or_op result: c9ffffff predicted_result: 1d
PASSED 00000000 op: and_op
PASSED ffffffff op: and_op
PASSED 00000000 op: sub_op
PASSED 00000093 op: op_error
PASSED ffffffff op: add_op
PASSED ffffffe6 op: sub_op
xmsim: *E,ERRSEV (./alu_tb.sv,433): (time 803701 NS).
top.scoreboard
FAILED: A: 0  B: 0  op: data_error result: ff predicted_result: c9
xmsim: *E,ERRSEV (./alu_tb.sv,433): (time 808681 NS).
top.scoreboard
FAILED: A: 0  B: ffffffea  op: op_error result: c9 predicted_result: 93
PASSED 000000a5 op: crc_error
PASSED 00000000 op: and_op
PASSED 00000051 op: and_op
PASSED 00000093 op: op_error
PASSED fffffff4 op: sub_op
PASSED 00000040 op: and_op
PASSED ffffffd6 op: add_op
xmsim: *E,ERRSEV (./alu_tb.sv,433): (time 848141 NS).
top.scoreboard
FAILED: A: ffffffff  B: 77  op: data_error result: ff predicted_result: c9
xmsim: *E,ERRSEV (./alu_tb.sv,433): (time 853121 NS).
top.scoreboard
FAILED: A: fffffff8  B: 6c  op: sub_op result: c9ffffff predicted_result: 74
PASSED 00000000 op: and_op
PASSED ffffff72 op: sub_op
PASSED 00000093 op: op_error
xmsim: *E,ERRSEV (./alu_tb.sv,433): (time 872621 NS).
top.scoreboard
FAILED: A: 0  B: ffffff9e  op: data_error result: 93 predicted_result: c9
xmsim: *E,ERRSEV (./alu_tb.sv,433): (time 877601 NS).
top.scoreboard
FAILED: A: ffffffff  B: ffffffff  op: or_op result: c9ffffff predicted_result: ffffffff
PASSED 0000007e op: or_op
PASSED 00000048 op: add_op
PASSED fffffffe op: add_op
PASSED fffffff7 op: or_op
PASSED 00000093 op: op_error
xmsim: *E,ERRSEV (./alu_tb.sv,433): (time 907061 NS).
top.scoreboard
FAILED: A: ffffffff  B: ffffffa0  op: data_error result: 93 predicted_result: c9
xmsim: *E,ERRSEV (./alu_tb.sv,433): (time 912041 NS).
top.scoreboard
FAILED: A: 0  B: ffffffff  op: crc_error result: c9 predicted_result: a5
PASSED 000000c9 op: data_error
xmsim: *E,ERRSEV (./alu_tb.sv,433): (time 921581 NS).
top.scoreboard
FAILED: A: 0  B: 0  op: op_error result: c9 predicted_result: 93
PASSED ffffffff op: or_op
PASSED 00000030 op: sub_op
PASSED ffffff63 op: add_op
PASSED 00000069 op: or_op
xmsim: *E,ERRSEV (./alu_tb.sv,433): (time 946041 NS).
top.scoreboard
FAILED: A: ffffffff  B: ffffffe8  op: data_error result: 0 predicted_result: c9
xmsim: *E,ERRSEV (./alu_tb.sv,433): (time 951021 NS).
top.scoreboard
FAILED: A: 37  B: fffffff8  op: op_error result: c9 predicted_result: 93
PASSED 00000000 op: and_op
xmsim: *E,ERRSEV (./alu_tb.sv,433): (time 960541 NS).
top.scoreboard
FAILED: A: 1e  B: ffffffeb  op: data_error result: 0 predicted_result: c9
xmsim: *E,ERRSEV (./alu_tb.sv,433): (time 965521 NS).
top.scoreboard
FAILED: A: 5e  B: 0  op: op_error result: c9 predicted_result: 93
PASSED 00000038 op: sub_op
PASSED 00000093 op: op_error
PASSED 00000000 op: sub_op
PASSED ffffffe3 op: add_op
PASSED 00000093 op: op_error
PASSED 00000093 op: op_error
PASSED 00000093 op: op_error
PASSED 000000a5 op: crc_error
PASSED 000000a5 op: crc_error
PASSED 000000a5 op: crc_error
PASSED ffffffc8 op: add_op
PASSED ffffffac op: add_op
PASSED ffffffff op: sub_op
PASSED 00000000 op: or_op
PASSED ffffffff op: or_op
PASSED 00000000 op: or_op
PASSED ffffffac op: or_op
PASSED ffffffff op: or_op
PASSED ffffffff op: or_op
PASSED 000000a5 op: crc_error
PASSED ffffffff op: add_op
PASSED 00000093 op: op_error
PASSED 000000a5 op: crc_error
PASSED 00000000 op: and_op
PASSED 00000093 op: op_error
PASSED 0000004c op: add_op
PASSED 00000093 op: op_error
PASSED ffffff81 op: and_op
PASSED 000000a5 op: crc_error
PASSED ffffff9a op: or_op
PASSED ffffffff op: or_op
PASSED 00000004 op: and_op
PASSED ffffffff op: add_op
PASSED 00000000 op: add_op
PASSED 00000000 op: and_op
xmsim: *E,ERRSEV (./alu_tb.sv,433): (time 1144401 NS).
top.scoreboard
FAILED: A: 0  B: 0  op: data_error result: 0 predicted_result: c9
xmsim: *E,ERRSEV (./alu_tb.sv,433): (time 1149381 NS).
top.scoreboard
FAILED: A: 51  B: 45  op: add_op result: c9ffffff predicted_result: 96
PASSED 00000093 op: op_error
PASSED 00000031 op: and_op
PASSED 00000093 op: op_error
PASSED ffffff8f op: add_op
PASSED 0000000a op: and_op
PASSED 00000025 op: or_op
PASSED 0000002f op: and_op
xmsim: *E,ERRSEV (./alu_tb.sv,433): (time 1188801 NS).
top.scoreboard
FAILED: A: 0  B: 6f  op: data_error result: 0 predicted_result: c9
xmsim: *E,ERRSEV (./alu_tb.sv,433): (time 1193781 NS).
top.scoreboard
FAILED: A: ffffffff  B: 72  op: or_op result: c9ffffff predicted_result: ffffffff
PASSED 000000c9 op: data_error
xmsim: *E,ERRSEV (./alu_tb.sv,433): (time 1203301 NS).
top.scoreboard
FAILED: A: ffffffcb  B: 71  op: and_op result: c9ffffff predicted_result: 41
PASSED 000000a5 op: crc_error
xmsim: *E,ERRSEV (./alu_tb.sv,433): (time 1212821 NS).
top.scoreboard
FAILED: A: ffffffff  B: 0  op: data_error result: a5 predicted_result: c9
xmsim: *E,ERRSEV (./alu_tb.sv,433): (time 1217801 NS).
top.scoreboard
FAILED: A: 5  B: ffffffb8  op: add_op result: c9ffffff predicted_result: ffffffbd
PASSED 00000064 op: sub_op
PASSED 00000033 op: add_op
PASSED ffffffa2 op: sub_op
PASSED 000000a5 op: crc_error
PASSED 0000000b op: and_op
PASSED 00000093 op: op_error
xmsim: *E,ERRSEV (./alu_tb.sv,433): (time 1252221 NS).
top.scoreboard
FAILED: A: 0  B: ffffffff  op: data_error result: 93 predicted_result: c9
xmsim: *E,ERRSEV (./alu_tb.sv,433): (time 1257201 NS).
top.scoreboard
FAILED: A: ffffffff  B: 5  op: sub_op result: c9ffffff predicted_result: 6
PASSED ffffffff op: or_op
PASSED 00000057 op: and_op
PASSED 000000a5 op: crc_error
PASSED 00000067 op: sub_op
PASSED 000000a5 op: crc_error
PASSED 00000050 op: add_op
PASSED ffffff96 op: sub_op
PASSED 0000001e op: or_op
PASSED ffffff80 op: and_op
xmsim: *E,ERRSEV (./alu_tb.sv,433): (time 1306601 NS).
top.scoreboard
FAILED: A: 25  B: ffffffff  op: data_error result: ff predicted_result: c9
xmsim: *E,ERRSEV (./alu_tb.sv,433): (time 1311581 NS).
top.scoreboard
FAILED: A: ffffff9f  B: 0  op: add_op result: c9ffffff predicted_result: ffffff9f
PASSED ffffffff op: or_op
PASSED 00000010 op: and_op
PASSED 00000093 op: op_error
PASSED 000000a5 op: crc_error
PASSED 000000a5 op: crc_error
PASSED ffffff83 op: add_op
PASSED ffffffff op: or_op
PASSED 0000005d op: add_op
PASSED 000000a5 op: crc_error
PASSED 00000054 op: and_op
PASSED 00000093 op: op_error
PASSED 00000000 op: and_op
xmsim: *E,ERRSEV (./alu_tb.sv,433): (time 1375881 NS).
top.scoreboard
FAILED: A: ffffffa9  B: ffffffdd  op: data_error result: 0 predicted_result: c9
xmsim: *E,ERRSEV (./alu_tb.sv,433): (time 1380861 NS).
top.scoreboard
FAILED: A: ffffffff  B: ffffffff  op: and_op result: c9ffffff predicted_result: ffffffff
PASSED ffffffff op: or_op
PASSED fffffffc op: and_op
PASSED 00000005 op: and_op
xmsim: *E,ERRSEV (./alu_tb.sv,433): (time 1400381 NS).
top.scoreboard
FAILED: A: ffffffff  B: ffffffa6  op: data_error result: 0 predicted_result: c9
xmsim: *E,ERRSEV (./alu_tb.sv,433): (time 1405361 NS).
top.scoreboard
FAILED: A: ffffffff  B: ffffffb1  op: op_error result: c9 predicted_result: 93
PASSED fffffff6 op: add_op
PASSED 0000003d op: add_op
xmsim: *E,ERRSEV (./alu_tb.sv,433): (time 1419881 NS).
top.scoreboard
FAILED: A: 0  B: ffffffff  op: data_error result: 0 predicted_result: c9
xmsim: *E,ERRSEV (./alu_tb.sv,433): (time 1424861 NS).
top.scoreboard
FAILED: A: 0  B: 0  op: and_op result: c9ffffff predicted_result: 0
PASSED ffffffff op: or_op
PASSED 00000093 op: op_error
PASSED 00000000 op: and_op
PASSED 00000093 op: op_error
PASSED 00000000 op: and_op
PASSED ffffffff op: sub_op
PASSED 00000000 op: and_op
PASSED ffffffc2 op: and_op
PASSED 00000000 op: add_op
PASSED 000000a5 op: crc_error
PASSED 00000021 op: or_op
PASSED 00000000 op: sub_op
PASSED 000000a5 op: crc_error
xmsim: *E,ERRSEV (./alu_tb.sv,433): (time 1494181 NS).
top.scoreboard
FAILED: A: 2d  B: 7  op: data_error result: a5 predicted_result: c9
xmsim: *E,ERRSEV (./alu_tb.sv,433): (time 1499161 NS).
top.scoreboard
FAILED: A: 0  B: 0  op: and_op result: c9ffffff predicted_result: 0
PASSED 000000c9 op: data_error
xmsim: *E,ERRSEV (./alu_tb.sv,433): (time 1508701 NS).
top.scoreboard
FAILED: A: 0  B: fffffff2  op: add_op result: c9ffffff predicted_result: fffffff2
PASSED 00000000 op: add_op
xmsim: *E,ERRSEV (./alu_tb.sv,433): (time 1518221 NS).
top.scoreboard
FAILED: A: 0  B: 0  op: data_error result: 0 predicted_result: c9
xmsim: *E,ERRSEV (./alu_tb.sv,433): (time 1523221 NS).
top.scoreboard
FAILED: A: fffffff5  B: 46  op: crc_error result: c9 predicted_result: a5
PASSED 00000093 op: op_error
PASSED 00000027 op: add_op
PASSED 00000093 op: op_error
PASSED fffffff7 op: or_op
PASSED 00000072 op: and_op
PASSED 000000a5 op: crc_error
PASSED 00000093 op: op_error
PASSED 00000022 op: sub_op
PASSED 00000093 op: op_error
PASSED 00000000 op: or_op
xmsim: *E,ERRSEV (./alu_tb.sv,433): (time 1577561 NS).
top.scoreboard
FAILED: A: ffffff9d  B: 0  op: data_error result: 0 predicted_result: c9
xmsim: *E,ERRSEV (./alu_tb.sv,433): (time 1582561 NS).
top.scoreboard
FAILED: A: 4f  B: 0  op: add_op result: c9ffffff predicted_result: 4f
PASSED 00000093 op: op_error
PASSED ffffffff op: and_op
PASSED ffffff84 op: sub_op
PASSED ffffffe5 op: sub_op
xmsim: *E,ERRSEV (./alu_tb.sv,433): (time 1607061 NS).
top.scoreboard
FAILED: A: 13  B: 1d  op: data_error result: ff predicted_result: c9
xmsim: *E,ERRSEV (./alu_tb.sv,433): (time 1612041 NS).
top.scoreboard
FAILED: A: ffffff8e  B: fffffff7  op: crc_error result: c9 predicted_result: a5
PASSED 000000a5 op: crc_error
PASSED ffffffe6 op: add_op
PASSED 00000000 op: sub_op
PASSED fffffffe op: add_op
PASSED 00000000 op: and_op
PASSED 000000a5 op: crc_error
PASSED ffffffff op: add_op
PASSED 00000093 op: op_error
PASSED ffffff92 op: add_op
PASSED 0000000d op: or_op
PASSED 000000a5 op: crc_error
PASSED ffffffff op: or_op
PASSED ffffffa5 op: sub_op
PASSED 00000070 op: and_op
PASSED ffffffff op: or_op
xmsim: *E,ERRSEV (./alu_tb.sv,433): (time 1691341 NS).
top.scoreboard
FAILED: A: ffffffff  B: 0  op: data_error result: ff predicted_result: c9
xmsim: *E,ERRSEV (./alu_tb.sv,433): (time 1696321 NS).
top.scoreboard
FAILED: A: 0  B: ffffffff  op: sub_op result: c9ffffff predicted_result: ffffffff
PASSED 000000a5 op: crc_error
PASSED 000000a5 op: crc_error
xmsim: *E,ERRSEV (./alu_tb.sv,433): (time 1710861 NS).
top.scoreboard
FAILED: A: 3b  B: 62  op: data_error result: a5 predicted_result: c9
xmsim: *E,ERRSEV (./alu_tb.sv,433): (time 1715841 NS).
top.scoreboard
FAILED: A: ffffffff  B: 0  op: add_op result: c9ffffff predicted_result: ffffffff
PASSED ffffffdf op: or_op
PASSED 000000a5 op: crc_error
PASSED 00000000 op: and_op
PASSED 000000a5 op: crc_error
PASSED 0000004b op: add_op
PASSED ffffffd3 op: or_op
PASSED 00000093 op: op_error
xmsim: *E,ERRSEV (./alu_tb.sv,433): (time 1755301 NS).
top.scoreboard
FAILED: A: 0  B: ffffffff  op: data_error result: 93 predicted_result: c9
xmsim: *E,ERRSEV (./alu_tb.sv,433): (time 1760281 NS).
top.scoreboard
FAILED: A: ffffffff  B: fffffff3  op: sub_op result: c9ffffff predicted_result: fffffff4
PASSED 000000c9 op: data_error
PASSED 000000c9 op: data_error
xmsim: *E,ERRSEV (./alu_tb.sv,433): (time 1774341 NS).
top.scoreboard
FAILED: A: 0  B: ffffffff  op: crc_error result: 93 predicted_result: a5
PASSED ffffffff op: sub_op
PASSED 00000000 op: and_op
xmsim: *E,ERRSEV (./alu_tb.sv,433): (time 1788861 NS).
top.scoreboard
FAILED: A: 0  B: ffffffff  op: data_error result: 0 predicted_result: c9
xmsim: *E,ERRSEV (./alu_tb.sv,433): (time 1793841 NS).
top.scoreboard
FAILED: A: ffffffff  B: ffffff96  op: crc_error result: c9 predicted_result: a5
PASSED 00000000 op: or_op
PASSED ffffffa3 op: or_op
PASSED 00000044 op: and_op
PASSED ffffffdc op: add_op
PASSED 00000075 op: add_op
PASSED 000000a5 op: crc_error
PASSED 00000093 op: op_error
PASSED 000000a5 op: crc_error
PASSED 0000002d op: sub_op
PASSED ffffffff op: or_op
PASSED ffffffff op: add_op
PASSED ffffffff op: add_op
PASSED 00000055 op: or_op
PASSED fffffff3 op: add_op
PASSED ffffffff op: add_op
PASSED 00000093 op: op_error
PASSED 00000008 op: sub_op
PASSED 00000093 op: op_error
PASSED 000000a5 op: crc_error
PASSED ffffffcb op: or_op
xmsim: *E,ERRSEV (./alu_tb.sv,433): (time 1898061 NS).
top.scoreboard
FAILED: A: ffffff8f  B: 0  op: data_error result: ff predicted_result: c9
xmsim: *E,ERRSEV (./alu_tb.sv,433): (time 1903041 NS).
top.scoreboard
FAILED: A: ffffffff  B: ffffffc9  op: sub_op result: c9ffffff predicted_result: ffffffca
PASSED 000000c9 op: data_error
xmsim: *E,ERRSEV (./alu_tb.sv,433): (time 1912561 NS).
top.scoreboard
FAILED: A: ffffffb6  B: 0  op: and_op result: c9ffffff predicted_result: 0
PASSED 000000c9 op: data_error
xmsim: *E,ERRSEV (./alu_tb.sv,433): (time 1922081 NS).
top.scoreboard
FAILED: A: ffffffff  B: ffffffc1  op: op_error result: c9 predicted_result: 93
PASSED 000000a5 op: crc_error
PASSED ffffffff op: or_op
PASSED ffffff85 op: and_op
PASSED 000000a5 op: crc_error
PASSED 00000093 op: op_error
PASSED ffffff89 op: or_op
PASSED 00000027 op: add_op
PASSED 00000000 op: and_op
PASSED 000000a5 op: crc_error
PASSED 000000a5 op: crc_error
PASSED ffffffff op: or_op
PASSED 00000000 op: or_op
PASSED 00000000 op: or_op
xmsim: *E,ERRSEV (./alu_tb.sv,433): (time 1991381 NS).
top.scoreboard
FAILED: A: 0  B: ffffffb3  op: data_error result: 0 predicted_result: c9
xmsim: *E,ERRSEV (./alu_tb.sv,433): (time 1996361 NS).
top.scoreboard
FAILED: A: 0  B: 41  op: and_op result: c9ffffff predicted_result: 0
PASSED ffffffd4 op: sub_op
PASSED 00000093 op: op_error
xmsim: *E,ERRSEV (./alu_tb.sv,433): (time 2010881 NS).
top.scoreboard
FAILED: A: 0  B: ffffffff  op: data_error result: 93 predicted_result: c9
xmsim: *E,ERRSEV (./alu_tb.sv,433): (time 2015881 NS).
top.scoreboard
FAILED: A: ffffffff  B: 0  op: and_op result: c9ffffff predicted_result: 0
PASSED 00000033 op: add_op
PASSED 000000a5 op: crc_error
PASSED 00000093 op: op_error
PASSED ffffffff op: add_op
PASSED ffffffea op: add_op
PASSED 00000000 op: and_op
PASSED 00000000 op: and_op
PASSED 00000093 op: op_error
PASSED 00000065 op: or_op
PASSED ffffffb2 op: or_op
PASSED 000000a5 op: crc_error
PASSED ffffffd6 op: or_op
xmsim: *E,ERRSEV (./alu_tb.sv,433): (time 2080181 NS).
top.scoreboard
FAILED: A: ffffffff  B: 20  op: data_error result: ff predicted_result: c9
xmsim: *E,ERRSEV (./alu_tb.sv,433): (time 2085161 NS).
top.scoreboard
FAILED: A: ffffff8e  B: 0  op: add_op result: c9ffffff predicted_result: ffffff8e
PASSED 000000c9 op: data_error
xmsim: *E,ERRSEV (./alu_tb.sv,433): (time 2094701 NS).
top.scoreboard
FAILED: A: 0  B: 0  op: op_error result: c9 predicted_result: 93
PASSED 000000c9 op: data_error
xmsim: *E,ERRSEV (./alu_tb.sv,433): (time 2104221 NS).
top.scoreboard
FAILED: A: 2b  B: ffffffc4  op: and_op result: c9ffffff predicted_result: 0
PASSED ffffffd9 op: add_op
PASSED ffffffff op: or_op
PASSED 0000004a op: add_op
xmsim: *E,ERRSEV (./alu_tb.sv,433): (time 2123701 NS).
top.scoreboard
FAILED: A: 0  B: 20  op: data_error result: 0 predicted_result: c9
xmsim: *E,ERRSEV (./alu_tb.sv,433): (time 2128681 NS).
top.scoreboard
FAILED: A: 0  B: 0  op: op_error result: c9 predicted_result: 93
PASSED ffffff80 op: and_op
PASSED ffffffc9 op: sub_op
PASSED 000000a5 op: crc_error
xmsim: *E,ERRSEV (./alu_tb.sv,433): (time 2148201 NS).
top.scoreboard
FAILED: A: ffffffff  B: ffffffff  op: data_error result: a5 predicted_result: c9
xmsim: *E,ERRSEV (./alu_tb.sv,433): (time 2153201 NS).
top.scoreboard
FAILED: A: 0  B: 0  op: and_op result: c9ffffff predicted_result: 0
PASSED 000000a5 op: crc_error
PASSED 00000060 op: sub_op
PASSED 00000040 op: and_op
PASSED 000000a5 op: crc_error
PASSED ffffffa1 op: and_op
PASSED ffffffff op: or_op
PASSED 00000000 op: and_op
PASSED ffffffff op: or_op
PASSED ffffffaf op: or_op
PASSED 00000000 op: and_op
xmsim: *E,ERRSEV (./alu_tb.sv,433): (time 2207581 NS).
top.scoreboard
FAILED: A: b  B: 0  op: data_error result: 0 predicted_result: c9
xmsim: *E,ERRSEV (./alu_tb.sv,433): (time 2212561 NS).
top.scoreboard
FAILED: A: 0  B: 45  op: sub_op result: c9ffffff predicted_result: 45
PASSED ffffff88 op: or_op
PASSED 00000040 op: and_op
PASSED 00000062 op: add_op
PASSED 000000a5 op: crc_error
PASSED ffffffff op: and_op
PASSED 00000093 op: op_error
PASSED 000000a5 op: crc_error
PASSED 0000002c op: add_op
PASSED 00000000 op: sub_op
PASSED 00000024 op: and_op
xmsim: *E,ERRSEV (./alu_tb.sv,433): (time 2266941 NS).
top.scoreboard
FAILED: A: ffffffaf  B: ffffffd3  op: data_error result: 0 predicted_result: c9
xmsim: *E,ERRSEV (./alu_tb.sv,433): (time 2271921 NS).
top.scoreboard
FAILED: A: 39  B: 0  op: crc_error result: c9 predicted_result: a5
PASSED 000000a5 op: crc_error
PASSED 000000a5 op: crc_error
PASSED ffffffff op: or_op
PASSED 00000093 op: op_error
PASSED ffffff9e op: add_op
PASSED fffffffe op: add_op
xmsim: *E,ERRSEV (./alu_tb.sv,433): (time 2306341 NS).
top.scoreboard
FAILED: A: 1c  B: ffffffac  op: data_error result: ff predicted_result: c9
xmsim: *E,ERRSEV (./alu_tb.sv,433): (time 2311321 NS).
top.scoreboard
FAILED: A: ffffff90  B: 0  op: sub_op result: c9ffffff predicted_result: 70
PASSED 000000c9 op: data_error
