lab02part1/xrun_gui.log
TOOL:	xrun	19.09-s003: Started on Nov 02, 2020 at 20:00:40 CET
xrun
	-f dut_alu.f
		mtm_Alu.vp
	-f tb_alu.f
		alu_pkg.sv
		alu_bfm.sv
		tester_alu.sv
		coverage_alu.sv
		scoreboard_alu.sv
		top_alu.sv
	-v93
	+nowarnDSEM2009
	+nowarnDSEMEL
	+nowarnCGDEFN
	-xmlibdirname INCA_libs_gui
	+access+r
	+gui
	+overwrite
	-nocopyright
	-coverage all
	-covoverwrite
	-covfile xrun_covfile.txt
	-covtest lab01
	-l xrun_gui.log

-------------------------------------
Relinquished control to SimVision...
xcelium> 
xcelium> source /cad/XCELIUM1909/tools/xcelium/files/xmsimrc
xcelium> database -open waves -into waves.shm -default
Created default SHM database waves
xcelium> probe -create -shm top.bfm.A top.bfm.B top.bfm.CTL top.bfm.clk top.bfm.done top.bfm.g top.bfm.i top.bfm.j top.bfm.j_nxt top.bfm.k top.bfm.l top.bfm.l_nxt top.bfm.op top.bfm.op_set top.bfm.out top.bfm.out_nxt top.bfm.q1 top.bfm.result top.bfm.rst_n top.bfm.sin top.bfm.sout
Created probe 1
xcelium> reset
xmsim: *W,C58RST: Reset command executed. Coverage is enabled for the subsequent simulation run.  The coverage test name needs to be changed to prevent data overwrite, and any coverage control commands previously used must be reissued.
Loaded snapshot worklib.top:sv
xcelium> run
PASSED 8484d608 op: add_op
PASSED 4e315e9c op: sub_op
PASSED 27a02a4f op: sub_op
PASSED f2fff7e5 op: or_op
PASSED e7fedfcf op: or_op
PASSED 0608480c op: and_op
PASSED c03b2281 op: sub_op
PASSED 88808811 op: and_op
PASSED 00000000 op: sub_op
PASSED 106f3421 op: sub_op
PASSED 00000093 op: op_error
xmsim: *E,ERRSEV (./scoreboard_alu.sv,33): (time 63751 NS).
top.scoreboard_i.scoreboard
FAILED: A: 20c4b341  B: 0  op: data_error result: 93 predicted_result: c9
PASSED 614109c2 op: and_op
xmsim: *E,ERRSEV (./scoreboard_alu.sv,33): (time 73871 NS).
top.scoreboard_i.scoreboard
FAILED: A: 0  B: 85d79a0b  op: crc_error result: 93 predicted_result: a5
PASSED ffffffff op: or_op
xmsim: *E,ERRSEV (./scoreboard_alu.sv,33): (time 83991 NS).
top.scoreboard_i.scoreboard
FAILED: A: aaa4b15  B: 6c9c4bd9  op: data_error result: 93 predicted_result: c9
xmsim: *E,ERRSEV (./scoreboard_alu.sv,33): (time 89051 NS).
top.scoreboard_i.scoreboard
FAILED: A: 0  B: ffffffff  op: data_error result: 93 predicted_result: c9
xmsim: *E,ERRSEV (./scoreboard_alu.sv,33): (time 94111 NS).
top.scoreboard_i.scoreboard
FAILED: A: 0  B: ffffffff  op: data_error result: 93 predicted_result: c9
xmsim: *E,ERRSEV (./scoreboard_alu.sv,33): (time 99171 NS).
top.scoreboard_i.scoreboard
FAILED: A: 0  B: ffffffff  op: data_error result: 93 predicted_result: c9
PASSED ffffffff op: or_op
PASSED 665fffcc op: or_op
PASSED 3feddb7f op: or_op
PASSED ffffffff op: or_op
PASSED ffffffff op: sub_op
PASSED ffffffff op: or_op
xmsim: *E,ERRSEV (./scoreboard_alu.sv,33): (time 134591 NS).
top.scoreboard_i.scoreboard
FAILED: A: ce2ff29c  B: 937dbc26  op: crc_error result: 93 predicted_result: a5
PASSED 00000093 op: op_error
PASSED 00000093 op: op_error
PASSED 00000093 op: op_error
PASSED ffdbeeff op: or_op
PASSED 2231ff44 op: or_op
xmsim: *E,ERRSEV (./scoreboard_alu.sv,33): (time 164951 NS).
top.scoreboard_i.scoreboard
FAILED: A: ffffffff  B: 6e5daddc  op: data_error result: 93 predicted_result: c9
xmsim: *E,ERRSEV (./scoreboard_alu.sv,33): (time 170011 NS).
top.scoreboard_i.scoreboard
FAILED: A: e1f102c3  B: 2779e94e  op: data_error result: 93 predicted_result: c9
xmsim: *E,ERRSEV (./scoreboard_alu.sv,33): (time 175071 NS).
top.scoreboard_i.scoreboard
FAILED: A: 5b6fb9b6  B: 0  op: data_error result: 93 predicted_result: c9
PASSED 00000000 op: or_op
PASSED 00000093 op: op_error
PASSED ae97235d op: sub_op
xmsim: *E,ERRSEV (./scoreboard_alu.sv,33): (time 195311 NS).
top.scoreboard_i.scoreboard
FAILED: A: a3071a46  B: 0  op: crc_error result: 93 predicted_result: a5
xmsim: *E,ERRSEV (./scoreboard_alu.sv,33): (time 200371 NS).
top.scoreboard_i.scoreboard
FAILED: A: da6ebab4  B: 0  op: crc_error result: 93 predicted_result: a5
PASSED 80452000 op: and_op
PASSED 149e0729 op: add_op
xmsim: *E,ERRSEV (./scoreboard_alu.sv,33): (time 215551 NS).
top.scoreboard_i.scoreboard
FAILED: A: 9eb7c63d  B: b855c470  op: crc_error result: 93 predicted_result: a5
PASSED 00000093 op: op_error
xmsim: *E,ERRSEV (./scoreboard_alu.sv,33): (time 225671 NS).
top.scoreboard_i.scoreboard
FAILED: A: 1b876137  B: 603921c0  op: data_error result: 93 predicted_result: c9
xmsim: *E,ERRSEV (./scoreboard_alu.sv,33): (time 230731 NS).
top.scoreboard_i.scoreboard
FAILED: A: 3e99837d  B: 0  op: crc_error result: 93 predicted_result: a5
xmsim: *E,ERRSEV (./scoreboard_alu.sv,33): (time 235791 NS).
top.scoreboard_i.scoreboard
FAILED: A: 0  B: ed8d80db  op: crc_error result: 93 predicted_result: a5
xmsim: *E,ERRSEV (./scoreboard_alu.sv,33): (time 240851 NS).
top.scoreboard_i.scoreboard
FAILED: A: fd28e4fa  B: b940917  op: crc_error result: 93 predicted_result: a5
PASSED baf79e75 op: or_op
PASSED e2e574c5 op: or_op
PASSED 00000093 op: op_error
xmsim: *E,ERRSEV (./scoreboard_alu.sv,33): (time 261091 NS).
top.scoreboard_i.scoreboard
FAILED: A: d44b80a8  B: d0ca8ca1  op: data_error result: 93 predicted_result: c9
xmsim: *E,ERRSEV (./scoreboard_alu.sv,33): (time 266151 NS).
top.scoreboard_i.scoreboard
FAILED: A: cfd6c09f  B: 155a1d2a  op: crc_error result: 93 predicted_result: a5
PASSED c7f6fd90 op: sub_op
xmsim: *E,ERRSEV (./scoreboard_alu.sv,33): (time 276271 NS).
top.scoreboard_i.scoreboard
FAILED: A: ffffffff  B: ffffffff  op: data_error result: 93 predicted_result: c9
xmsim: *E,ERRSEV (./scoreboard_alu.sv,33): (time 281331 NS).
top.scoreboard_i.scoreboard
FAILED: A: 5d059dba  B: 0  op: data_error result: 93 predicted_result: c9
PASSED ffffffff op: or_op
xmsim: *E,ERRSEV (./scoreboard_alu.sv,33): (time 291451 NS).
top.scoreboard_i.scoreboard
FAILED: A: f92794f2  B: dece5ebd  op: crc_error result: 93 predicted_result: a5
PASSED 54a879a9 op: add_op
PASSED ffffffff op: or_op
PASSED dfe8f7bf op: or_op
PASSED 00000093 op: op_error
xmsim: *E,ERRSEV (./scoreboard_alu.sv,33): (time 316751 NS).
top.scoreboard_i.scoreboard
FAILED: A: 0  B: 25b75f4b  op: data_error result: 93 predicted_result: c9
xmsim: *E,ERRSEV (./scoreboard_alu.sv,33): (time 321811 NS).
top.scoreboard_i.scoreboard
FAILED: A: 6b3050d  B: 0  op: data_error result: 93 predicted_result: c9
PASSED 81360402 op: and_op
PASSED adac225b op: and_op
xmsim: *E,ERRSEV (./scoreboard_alu.sv,33): (time 336991 NS).
top.scoreboard_i.scoreboard
FAILED: A: 0  B: ffffffff  op: data_error result: 93 predicted_result: c9
PASSED d00304a0 op: and_op
PASSED ffffffff op: or_op
PASSED 8f8c6e1f op: or_op
PASSED 0a221014 op: and_op
PASSED ffffffff op: or_op
PASSED 6c3eddd9 op: sub_op
PASSED a4da564a op: sub_op
PASSED 00000093 op: op_error
xmsim: *E,ERRSEV (./scoreboard_alu.sv,33): (time 382531 NS).
top.scoreboard_i.scoreboard
FAILED: A: 41a10583  B: 0  op: data_error result: 93 predicted_result: c9
xmsim: *E,ERRSEV (./scoreboard_alu.sv,33): (time 387591 NS).
top.scoreboard_i.scoreboard
FAILED: A: b455f268  B: ffffffff  op: data_error result: 93 predicted_result: c9
xmsim: *E,ERRSEV (./scoreboard_alu.sv,33): (time 392651 NS).
top.scoreboard_i.scoreboard
FAILED: A: 0  B: 0  op: crc_error result: 93 predicted_result: a5
PASSED 00000000 op: and_op
PASSED 00000000 op: and_op
PASSED 21d62243 op: add_op
PASSED c3360485 op: add_op
PASSED 3d38847a op: sub_op
PASSED 9de17c3b op: add_op
xmsim: *E,ERRSEV (./scoreboard_alu.sv,33): (time 428071 NS).
top.scoreboard_i.scoreboard
FAILED: A: ffffffff  B: ae78585c  op: crc_error result: 93 predicted_result: a5
PASSED 00000000 op: sub_op
xmsim: *E,ERRSEV (./scoreboard_alu.sv,33): (time 438191 NS).
top.scoreboard_i.scoreboard
FAILED: A: 0  B: 86dcf00d  op: data_error result: 93 predicted_result: c9
PASSED 00000093 op: op_error
PASSED 00000093 op: op_error
PASSED ce0b959c op: sub_op
PASSED 2d41685a op: sub_op
PASSED c63a928c op: add_op
PASSED 80ea6700 op: add_op
PASSED 80810001 op: and_op
xmsim: *E,ERRSEV (./scoreboard_alu.sv,33): (time 478671 NS).
top.scoreboard_i.scoreboard
FAILED: A: a48f7c49  B: 0  op: data_error result: 93 predicted_result: c9
PASSED 00000001 op: sub_op
PASSED 635085c7 op: sub_op
PASSED 00000000 op: and_op
PASSED 00000000 op: and_op
PASSED 00000093 op: op_error
PASSED 00000093 op: op_error
PASSED 00000093 op: op_error
PASSED 24d2bf49 op: sub_op
PASSED 00000000 op: or_op
PASSED 00000093 op: op_error
PASSED bdd9567b op: sub_op
PASSED e97f96d2 op: or_op
xmsim: *E,ERRSEV (./scoreboard_alu.sv,33): (time 544451 NS).
top.scoreboard_i.scoreboard
FAILED: A: ffffffff  B: ffffffff  op: crc_error result: 93 predicted_result: a5
xmsim: *E,ERRSEV (./scoreboard_alu.sv,33): (time 549511 NS).
top.scoreboard_i.scoreboard
FAILED: A: ffffffff  B: 0  op: crc_error result: 93 predicted_result: a5
xmsim: *E,ERRSEV (./scoreboard_alu.sv,33): (time 554571 NS).
top.scoreboard_i.scoreboard
FAILED: A: 8653620c  B: 62fd49c5  op: crc_error result: 93 predicted_result: a5
xmsim: *E,ERRSEV (./scoreboard_alu.sv,33): (time 559631 NS).
top.scoreboard_i.scoreboard
FAILED: A: 0  B: b4f9a469  op: crc_error result: 93 predicted_result: a5
xmsim: *E,ERRSEV (./scoreboard_alu.sv,33): (time 564691 NS).
top.scoreboard_i.scoreboard
FAILED: A: ec3758d8  B: ffffffff  op: crc_error result: 93 predicted_result: a5
PASSED ffffffff op: add_op
xmsim: *E,ERRSEV (./scoreboard_alu.sv,33): (time 574811 NS).
top.scoreboard_i.scoreboard
FAILED: A: 0  B: ffffffff  op: crc_error result: 93 predicted_result: a5
PASSED ffffffff op: sub_op
xmsim: *E,ERRSEV (./scoreboard_alu.sv,33): (time 584931 NS).
top.scoreboard_i.scoreboard
FAILED: A: 45e28b8b  B: 6d808bdb  op: crc_error result: 93 predicted_result: a5
PASSED 00000000 op: and_op
PASSED 5441a9a8 op: and_op
xmsim: *E,ERRSEV (./scoreboard_alu.sv,33): (time 600111 NS).
top.scoreboard_i.scoreboard
FAILED: A: ffffffff  B: cab47c95  op: crc_error result: 93 predicted_result: a5
xmsim: *E,ERRSEV (./scoreboard_alu.sv,33): (time 605171 NS).
top.scoreboard_i.scoreboard
FAILED: A: 0  B: 9420ea28  op: crc_error result: 93 predicted_result: a5
PASSED f0eeaee0 op: add_op
xmsim: *E,ERRSEV (./scoreboard_alu.sv,33): (time 615291 NS).
top.scoreboard_i.scoreboard
FAILED: A: 6a9fb9d5  B: 0  op: crc_error result: 93 predicted_result: a5
PASSED 069b800d op: and_op
xmsim: *E,ERRSEV (./scoreboard_alu.sv,33): (time 625411 NS).
top.scoreboard_i.scoreboard
FAILED: A: 1e664d3c  B: 77ebb1ef  op: crc_error result: 93 predicted_result: a5
PASSED 00000093 op: op_error
PASSED 00000093 op: op_error
PASSED 00000093 op: op_error
PASSED 319de862 op: add_op
PASSED 5f5133be op: sub_op
PASSED 00000093 op: op_error
PASSED 91c2b824 op: sub_op
PASSED 00000093 op: op_error
PASSED 00000093 op: op_error
xmsim: *E,ERRSEV (./scoreboard_alu.sv,33): (time 676011 NS).
top.scoreboard_i.scoreboard
FAILED: A: ffffffff  B: 0  op: crc_error result: 93 predicted_result: a5
xmsim: *E,ERRSEV (./scoreboard_alu.sv,33): (time 681071 NS).
top.scoreboard_i.scoreboard
FAILED: A: 0  B: 5ca26fb9  op: crc_error result: 93 predicted_result: a5
PASSED 00000093 op: op_error
PASSED affcff5f op: or_op
xmsim: *E,ERRSEV (./scoreboard_alu.sv,33): (time 696251 NS).
top.scoreboard_i.scoreboard
FAILED: A: 0  B: 0  op: data_error result: 93 predicted_result: c9
PASSED 00000001 op: sub_op
PASSED a620904c op: and_op
PASSED 00000000 op: and_op
PASSED a1daae44 op: sub_op
PASSED 00000000 op: and_op
PASSED 511533a3 op: sub_op
xmsim: *E,ERRSEV (./scoreboard_alu.sv,33): (time 731671 NS).
top.scoreboard_i.scoreboard
FAILED: A: 0  B: 0  op: data_error result: 93 predicted_result: c9
xmsim: *E,ERRSEV (./scoreboard_alu.sv,33): (time 736731 NS).
top.scoreboard_i.scoreboard
FAILED: A: 23400b46  B: ffffffff  op: crc_error result: 93 predicted_result: a5
PASSED 00000093 op: op_error
PASSED fc79f6f8 op: or_op
xmsim: *E,ERRSEV (./scoreboard_alu.sv,33): (time 751911 NS).
top.scoreboard_i.scoreboard
FAILED: A: 0  B: 55861fab  op: data_error result: 93 predicted_result: c9
PASSED 00000000 op: and_op
PASSED ba0cdc75 op: sub_op
PASSED 52b533a5 op: add_op
xmsim: *E,ERRSEV (./scoreboard_alu.sv,33): (time 772151 NS).
top.scoreboard_i.scoreboard
FAILED: A: ffffffff  B: 0  op: crc_error result: 93 predicted_result: a5
PASSED cd1d509a op: add_op
PASSED 4111d182 op: and_op
xmsim: *E,ERRSEV (./scoreboard_alu.sv,33): (time 787331 NS).
top.scoreboard_i.scoreboard
FAILED: A: 0  B: 61dafdc3  op: data_error result: 93 predicted_result: c9
PASSED 00000093 op: op_error
PASSED 00000093 op: op_error
PASSED 00000000 op: sub_op
PASSED 00000093 op: op_error
PASSED 196a0331 op: add_op
PASSED d57fecaa op: or_op
PASSED 44640788 op: and_op
PASSED ffffffff op: add_op
PASSED ffffffff op: or_op
PASSED ffffffff op: or_op
PASSED 00000093 op: op_error
PASSED 00000093 op: op_error
PASSED 00000000 op: add_op
xmsim: *E,ERRSEV (./scoreboard_alu.sv,33): (time 858171 NS).
top.scoreboard_i.scoreboard
FAILED: A: 1b920537  B: ffffffff  op: data_error result: 93 predicted_result: c9
xmsim: *E,ERRSEV (./scoreboard_alu.sv,33): (time 863231 NS).
top.scoreboard_i.scoreboard
FAILED: A: 9f7a0e3e  B: 0  op: crc_error result: 93 predicted_result: a5
PASSED 09164d12 op: add_op
PASSED 790008f2 op: and_op
PASSED 00000093 op: op_error
PASSED 00000093 op: op_error
PASSED fffffffe op: add_op
PASSED f0ea70e1 op: add_op
PASSED 1b20e937 op: sub_op
xmsim: *E,ERRSEV (./scoreboard_alu.sv,33): (time 903711 NS).
top.scoreboard_i.scoreboard
FAILED: A: 0  B: ffffffff  op: crc_error result: 93 predicted_result: a5
PASSED 6e6d23dc op: and_op
PASSED 00000000 op: and_op
PASSED 00000093 op: op_error
PASSED ffffffff op: and_op
xmsim: *E,ERRSEV (./scoreboard_alu.sv,33): (time 929011 NS).
top.scoreboard_i.scoreboard
FAILED: A: b8760270  B: ffffffff  op: data_error result: 93 predicted_result: c9
PASSED 0edddf1d op: or_op
PASSED 00000000 op: and_op
PASSED ffffffff op: and_op
PASSED 00000000 op: sub_op
PASSED 00000000 op: sub_op
PASSED 00000093 op: op_error
PASSED 00000093 op: op_error
PASSED ffffffff op: add_op
PASSED 72828de6 op: sub_op
xmsim: *E,ERRSEV (./scoreboard_alu.sv,33): (time 979611 NS).
top.scoreboard_i.scoreboard
FAILED: A: 0  B: 0  op: data_error result: 93 predicted_result: c9
PASSED 00000093 op: op_error
xmsim: *E,ERRSEV (./scoreboard_alu.sv,33): (time 989731 NS).
top.scoreboard_i.scoreboard
FAILED: A: 0  B: ffffffff  op: crc_error result: 93 predicted_result: a5
PASSED 00000000 op: and_op
PASSED 28d6a951 op: and_op
PASSED 00000093 op: op_error
PASSED 00000093 op: op_error
PASSED fa0f63f4 op: sub_op
PASSED e9d22cd4 op: sub_op
PASSED 20536140 op: and_op
PASSED 6b299dd6 op: add_op
PASSED ffffffff op: add_op
xmsim: *E,ERRSEV (./scoreboard_alu.sv,33): (time 1040331 NS).
top.scoreboard_i.scoreboard
FAILED: A: ffffffff  B: bbbc3e77  op: data_error result: 93 predicted_result: c9
PASSED 399a4e74 op: sub_op
PASSED 00000000 op: and_op
PASSED a4200648 op: and_op
PASSED 39181872 op: sub_op
PASSED 00000093 op: op_error
xmsim: *E,ERRSEV (./scoreboard_alu.sv,33): (time 1070691 NS).
top.scoreboard_i.scoreboard
FAILED: A: 0  B: 4f49019e  op: data_error result: 93 predicted_result: c9
PASSED ffffffff op: or_op
PASSED bf53b47e op: or_op
PASSED a4de2848 op: add_op
PASSED fffffffe op: add_op
PASSED fbbf5ff7 op: or_op
PASSED 7e29b3fc op: or_op
PASSED 00000093 op: op_error
xmsim: *E,ERRSEV (./scoreboard_alu.sv,33): (time 1111171 NS).
top.scoreboard_i.scoreboard
FAILED: A: ffffffff  B: d066e4a0  op: data_error result: 93 predicted_result: c9
xmsim: *E,ERRSEV (./scoreboard_alu.sv,33): (time 1116231 NS).
top.scoreboard_i.scoreboard
FAILED: A: 0  B: ffffffff  op: crc_error result: 93 predicted_result: a5
xmsim: *E,ERRSEV (./scoreboard_alu.sv,33): (time 1121291 NS).
top.scoreboard_i.scoreboard
FAILED: A: eff34cdf  B: 0  op: data_error result: 93 predicted_result: c9
xmsim: *E,ERRSEV (./scoreboard_alu.sv,33): (time 1126351 NS).
top.scoreboard_i.scoreboard
FAILED: A: 0  B: 5ee97bbd  op: data_error result: 93 predicted_result: c9
PASSED 00000093 op: op_error
PASSED ffffffff op: or_op
PASSED 17a98d30 op: sub_op
PASSED b2713963 op: add_op
PASSED b4c16c69 op: or_op
xmsim: *E,ERRSEV (./scoreboard_alu.sv,33): (time 1156711 NS).
top.scoreboard_i.scoreboard
FAILED: A: 7fcff3ff  B: f42082e8  op: data_error result: 93 predicted_result: c9
PASSED 00000093 op: op_error
PASSED 00000000 op: and_op
xmsim: *E,ERRSEV (./scoreboard_alu.sv,33): (time 1171891 NS).
top.scoreboard_i.scoreboard
FAILED: A: f1e511e  B: f5a4f2eb  op: data_error result: 93 predicted_result: c9
PASSED 00000093 op: op_error
PASSED 1bf8bd38 op: sub_op
PASSED 00000093 op: op_error
PASSED 00000000 op: sub_op
PASSED f1a32ee3 op: add_op
PASSED 00000093 op: op_error
PASSED 00000093 op: op_error
PASSED 00000093 op: op_error
PASSED 00000093 op: op_error
xmsim: *E,ERRSEV (./scoreboard_alu.sv,33): (time 1222491 NS).
top.scoreboard_i.scoreboard
FAILED: A: 35557b6a  B: 8c06d218  op: crc_error result: 93 predicted_result: a5
xmsim: *E,ERRSEV (./scoreboard_alu.sv,33): (time 1227551 NS).
top.scoreboard_i.scoreboard
FAILED: A: 1725712e  B: 33638966  op: crc_error result: 93 predicted_result: a5
xmsim: *E,ERRSEV (./scoreboard_alu.sv,33): (time 1232611 NS).
top.scoreboard_i.scoreboard
FAILED: A: c7b43a8f  B: 3da8cd7b  op: crc_error result: 93 predicted_result: a5
PASSED e4d820c8 op: add_op
PASSED d6aea8ac op: add_op
PASSED ffffffff op: sub_op
PASSED 00000000 op: or_op
PASSED ffffffff op: or_op
PASSED 00000000 op: or_op
PASSED d659d0ac op: or_op
PASSED ffffffff op: or_op
PASSED ffffffff op: or_op
xmsim: *E,ERRSEV (./scoreboard_alu.sv,33): (time 1283211 NS).
top.scoreboard_i.scoreboard
FAILED: A: ffffffff  B: 2ed66b5d  op: crc_error result: 93 predicted_result: a5
PASSED ffffffff op: add_op
PASSED 00000093 op: op_error
xmsim: *E,ERRSEV (./scoreboard_alu.sv,33): (time 1298391 NS).
top.scoreboard_i.scoreboard
FAILED: A: d01df0a0  B: ffffffff  op: crc_error result: 93 predicted_result: a5
PASSED 00000000 op: and_op
PASSED 00000093 op: op_error
PASSED 00000093 op: op_error
PASSED 26c7134c op: add_op
PASSED 00000093 op: op_error
PASSED 40eb4f81 op: and_op
xmsim: *E,ERRSEV (./scoreboard_alu.sv,33): (time 1333811 NS).
top.scoreboard_i.scoreboard
FAILED: A: 878a880f  B: ffffffff  op: crc_error result: 93 predicted_result: a5
PASSED cd57529a op: or_op
PASSED ffffffff op: or_op
PASSED 82102004 op: and_op
PASSED 005d50ff op: add_op
PASSED 00000000 op: add_op
PASSED 00000000 op: and_op
xmsim: *E,ERRSEV (./scoreboard_alu.sv,33): (time 1369231 NS).
top.scoreboard_i.scoreboard
FAILED: A: 0  B: 0  op: data_error result: 93 predicted_result: c9
PASSED 4b5fca96 op: add_op
PASSED 00000093 op: op_error
PASSED 98b4dc31 op: and_op
PASSED 00000093 op: op_error
PASSED c7ab2d8f op: add_op
PASSED 8569fa0a op: and_op
PASSED 92fd2825 op: or_op
PASSED 97dde22f op: and_op
PASSED 00000000 op: and_op
xmsim: *E,ERRSEV (./scoreboard_alu.sv,33): (time 1419831 NS).
top.scoreboard_i.scoreboard
FAILED: A: 0  B: b7b82a6f  op: data_error result: 93 predicted_result: c9
PASSED ffffffff op: or_op
xmsim: *E,ERRSEV (./scoreboard_alu.sv,33): (time 1429951 NS).
top.scoreboard_i.scoreboard
FAILED: A: ffffffff  B: e5ceb0cb  op: data_error result: 93 predicted_result: c9
PASSED 20800141 op: and_op
xmsim: *E,ERRSEV (./scoreboard_alu.sv,33): (time 1440071 NS).
top.scoreboard_i.scoreboard
FAILED: A: daf356b5  B: 0  op: crc_error result: 93 predicted_result: a5
xmsim: *E,ERRSEV (./scoreboard_alu.sv,33): (time 1445131 NS).
top.scoreboard_i.scoreboard
FAILED: A: ffffffff  B: 0  op: data_error result: 93 predicted_result: c9
PASSED deb5ddbd op: add_op
PASSED 324c4e64 op: sub_op
PASSED 1a133933 op: add_op
PASSED d0c93aa2 op: sub_op
xmsim: *E,ERRSEV (./scoreboard_alu.sv,33): (time 1470431 NS).
top.scoreboard_i.scoreboard
FAILED: A: 0  B: 0  op: crc_error result: 93 predicted_result: a5
PASSED 05f8820b op: and_op
PASSED 00000093 op: op_error
xmsim: *E,ERRSEV (./scoreboard_alu.sv,33): (time 1485611 NS).
top.scoreboard_i.scoreboard
FAILED: A: 0  B: ffffffff  op: data_error result: 93 predicted_result: c9
PASSED 82b78606 op: sub_op
PASSED ffffffff op: or_op
PASSED abe8c057 op: and_op
xmsim: *E,ERRSEV (./scoreboard_alu.sv,33): (time 1505851 NS).
top.scoreboard_i.scoreboard
FAILED: A: ffffffff  B: 0  op: crc_error result: 93 predicted_result: a5
PASSED 336d9367 op: sub_op
xmsim: *E,ERRSEV (./scoreboard_alu.sv,33): (time 1515971 NS).
top.scoreboard_i.scoreboard
FAILED: A: ffffffff  B: 0  op: crc_error result: 93 predicted_result: a5
PASSED 286f1350 op: add_op
PASSED ca9b7c96 op: sub_op
PASSED ffffffff op: sub_op
PASSED 8f49661e op: or_op
PASSED c0400280 op: and_op
PASSED 20408440 op: and_op
xmsim: *E,ERRSEV (./scoreboard_alu.sv,33): (time 1551391 NS).
top.scoreboard_i.scoreboard
FAILED: A: 12ce1125  B: ffffffff  op: data_error result: 93 predicted_result: c9
PASSED cfb89e9f op: add_op
PASSED ffffffff op: or_op
PASSED 08104010 op: and_op
PASSED 00000093 op: op_error
xmsim: *E,ERRSEV (./scoreboard_alu.sv,33): (time 1576691 NS).
top.scoreboard_i.scoreboard
FAILED: A: ffffffff  B: f670fcec  op: crc_error result: 93 predicted_result: a5
xmsim: *E,ERRSEV (./scoreboard_alu.sv,33): (time 1581751 NS).
top.scoreboard_i.scoreboard
FAILED: A: e02148c0  B: ffffffff  op: crc_error result: 93 predicted_result: a5
PASSED 4277d783 op: add_op
PASSED ffffffff op: or_op
PASSED 2e97795d op: add_op
xmsim: *E,ERRSEV (./scoreboard_alu.sv,33): (time 1601991 NS).
top.scoreboard_i.scoreboard
FAILED: A: 0  B: ffffffff  op: crc_error result: 93 predicted_result: a5
PASSED 2a04b554 op: and_op
PASSED 00000093 op: op_error
PASSED 00000000 op: and_op
xmsim: *E,ERRSEV (./scoreboard_alu.sv,33): (time 1622231 NS).
top.scoreboard_i.scoreboard
FAILED: A: d4ea6aa9  B: 6ec2cbdd  op: data_error result: 93 predicted_result: c9
PASSED ffffffff op: and_op
PASSED ffffffff op: or_op
PASSED 7e72c5fc op: and_op
PASSED 02820605 op: and_op
PASSED 00000000 op: and_op
PASSED b428aa68 op: and_op
xmsim: *E,ERRSEV (./scoreboard_alu.sv,33): (time 1657651 NS).
top.scoreboard_i.scoreboard
FAILED: A: ffffffff  B: d33554a6  op: data_error result: 93 predicted_result: c9
PASSED 00000093 op: op_error
PASSED 7b24bdf6 op: add_op
PASSED 1f77b73d op: add_op
PASSED 9e9dca3d op: add_op
xmsim: *E,ERRSEV (./scoreboard_alu.sv,33): (time 1682951 NS).
top.scoreboard_i.scoreboard
FAILED: A: 0  B: ffffffff  op: data_error result: 93 predicted_result: c9
PASSED 00000000 op: and_op
PASSED ffffffff op: or_op
PASSED 00000093 op: op_error
PASSED 00000000 op: and_op
PASSED 00000093 op: op_error
PASSED 00000093 op: op_error
PASSED 00000000 op: and_op
PASSED ffffffff op: sub_op
PASSED 00000000 op: and_op
PASSED 615841c2 op: and_op
PASSED 00000000 op: add_op
xmsim: *E,ERRSEV (./scoreboard_alu.sv,33): (time 1743671 NS).
top.scoreboard_i.scoreboard
FAILED: A: 0  B: e5a2b2cb  op: crc_error result: 93 predicted_result: a5
xmsim: *E,ERRSEV (./scoreboard_alu.sv,33): (time 1748731 NS).
top.scoreboard_i.scoreboard
FAILED: A: 0  B: 0  op: crc_error result: 93 predicted_result: a5
PASSED 10c2c521 op: or_op
PASSED 00000000 op: sub_op
xmsim: *E,ERRSEV (./scoreboard_alu.sv,33): (time 1763911 NS).
top.scoreboard_i.scoreboard
FAILED: A: 0  B: 90138420  op: crc_error result: 93 predicted_result: a5
xmsim: *E,ERRSEV (./scoreboard_alu.sv,33): (time 1768971 NS).
top.scoreboard_i.scoreboard
FAILED: A: 96ec2a2d  B: 83a5a007  op: data_error result: 93 predicted_result: c9
PASSED 00000000 op: and_op
PASSED ffffffff op: and_op
xmsim: *E,ERRSEV (./scoreboard_alu.sv,33): (time 1784151 NS).
top.scoreboard_i.scoreboard
FAILED: A: ffffffff  B: 38bd8d71  op: data_error result: 93 predicted_result: c9
PASSED f92c9af2 op: add_op
PASSED 00000000 op: add_op
xmsim: *E,ERRSEV (./scoreboard_alu.sv,33): (time 1799331 NS).
top.scoreboard_i.scoreboard
FAILED: A: 0  B: 0  op: data_error result: 93 predicted_result: c9
xmsim: *E,ERRSEV (./scoreboard_alu.sv,33): (time 1804391 NS).
top.scoreboard_i.scoreboard
FAILED: A: c0d54c81  B: 65e2ffcb  op: data_error result: 93 predicted_result: c9
xmsim: *E,ERRSEV (./scoreboard_alu.sv,33): (time 1809451 NS).
top.scoreboard_i.scoreboard
FAILED: A: faf442f5  B: 23661746  op: crc_error result: 93 predicted_result: a5
PASSED 00000093 op: op_error
PASSED 93dd5927 op: add_op
PASSED 00000093 op: op_error
PASSED fbbfaff7 op: or_op
PASSED 393d9b72 op: and_op
xmsim: *E,ERRSEV (./scoreboard_alu.sv,33): (time 1839811 NS).
top.scoreboard_i.scoreboard
FAILED: A: 66c259cd  B: 6b834dd7  op: crc_error result: 93 predicted_result: a5
PASSED 00000093 op: op_error
PASSED 11357d22 op: sub_op
PASSED 00000093 op: op_error
PASSED 00000000 op: or_op
xmsim: *E,ERRSEV (./scoreboard_alu.sv,33): (time 1865111 NS).
top.scoreboard_i.scoreboard
FAILED: A: 4eee339d  B: 0  op: data_error result: 93 predicted_result: c9
xmsim: *E,ERRSEV (./scoreboard_alu.sv,33): (time 1870171 NS).
top.scoreboard_i.scoreboard
FAILED: A: 8658500c  B: 0  op: data_error result: 93 predicted_result: c9
PASSED a79ca84f op: add_op
PASSED 00000093 op: op_error
PASSED ffffffff op: and_op
PASSED 42738284 op: sub_op
PASSED 2566444a op: sub_op
PASSED 1ad81935 op: sub_op
PASSED f29ae4e5 op: sub_op
xmsim: *E,ERRSEV (./scoreboard_alu.sv,33): (time 1910651 NS).
top.scoreboard_i.scoreboard
FAILED: A: 9b4a313  B: 8ed88a1d  op: data_error result: 93 predicted_result: c9
xmsim: *E,ERRSEV (./scoreboard_alu.sv,33): (time 1915711 NS).
top.scoreboard_i.scoreboard
FAILED: A: c762268e  B: fbced2f7  op: crc_error result: 93 predicted_result: a5
xmsim: *E,ERRSEV (./scoreboard_alu.sv,33): (time 1920771 NS).
top.scoreboard_i.scoreboard
FAILED: A: 7f4ce1fe  B: d39764a7  op: crc_error result: 93 predicted_result: a5
PASSED 735ce0e6 op: add_op
PASSED 00000000 op: sub_op
PASSED fffffffe op: add_op
PASSED 00000000 op: and_op
PASSED 00000000 op: and_op
PASSED 00000000 op: and_op
xmsim: *E,ERRSEV (./scoreboard_alu.sv,33): (time 1956191 NS).
top.scoreboard_i.scoreboard
FAILED: A: 395f1772  B: 0  op: crc_error result: 93 predicted_result: a5
PASSED ffffffff op: add_op
PASSED 00000093 op: op_error
